{
    "_id": "491qhVbjsHnOuMZW",
    "data": {
        "attributes": {
            "ac": {
                "value": 10
            },
            "hardness": 0,
            "hasHealth": false,
            "hp": {
                "details": "",
                "max": 0,
                "temp": 0,
                "tempmax": 0,
                "value": 0
            },
            "stealth": {
                "details": "(trained)",
                "value": 10
            }
        },
        "creatureType": "",
        "details": {
            "description": "An invisible rune imprinted on a door latch releases a powerful electric discharge.",
            "disable": "<p><span data-pf2-check=\"thievery\" data-pf2-label=\"Scratch Out the Rune DC\" data-pf2-dc=\"20\" data-pf2-show-dc=\"gm\">Thievery</span> (expert) to scratch out the rune without allowing electricity to flow, or <em>dispel magic</em> (2nd level; counteract DC 18) to counteract the rune</p>",
            "isComplex": false,
            "level": {
                "value": 3
            },
            "reset": "",
            "routine": ""
        },
        "saves": {
            "fortitude": {
                "saveDetail": "",
                "value": 0
            },
            "reflex": {
                "saveDetail": "",
                "value": 0
            },
            "will": {
                "saveDetail": "",
                "value": 0
            }
        },
        "source": {
            "value": "Pathfinder Core Rulebook"
        },
        "statusEffects": [],
        "traits": {
            "ci": [],
            "di": {
                "custom": "",
                "selected": {},
                "value": []
            },
            "dr": [],
            "dv": [],
            "rarity": {
                "value": "common"
            },
            "size": {
                "value": "med"
            },
            "traits": {
                "custom": "",
                "value": [
                    "electricity",
                    "evocation",
                    "magical",
                    "trap"
                ]
            }
        }
    },
    "effects": [],
    "flags": {},
    "img": "systems/pf2e/icons/default-icons/hazard.svg",
    "items": [
        {
            "_id": "FzfgLXTt6R8bYmTP",
            "data": {
                "actionCategory": {
                    "value": ""
                },
                "actionType": {
                    "value": "reaction"
                },
                "actions": {
                    "value": null
                },
                "description": {
                    "value": "<p data-visibility=\"gm\"><strong>Trigger</strong> A creature grasps the door latch directly or with a tool.</p>\n<p><strong>Effect</strong> The trap deals [[/r {3d12}[electricity]]]{3d12 electricity damage} to the triggering creature (<span data-pf2-check=\"reflex\" data-pf2-dc=\"22\" data-pf2-traits=\"arcane,electricity,evocation,damaging-effect\" data-pf2-label=\"Electrocution DC\" data-pf2-show-dc=\"gm\">basic Reflex</span> save).</p>"
                },
                "requirements": {
                    "value": ""
                },
                "rules": [],
                "slug": null,
                "source": {
                    "value": ""
                },
                "traits": {
                    "custom": "",
                    "rarity": {
                        "value": "common"
                    },
                    "value": [
                        "arcane",
                        "electricity",
                        "evocation"
                    ]
                },
                "trigger": {
                    "value": ""
                },
                "weapon": {
                    "value": ""
                }
            },
            "effects": [],
            "flags": {},
            "img": "systems/pf2e/icons/actions/Reaction.webp",
            "name": "Electrocution",
            "sort": 100000,
            "type": "action"
        }
    ],
    "name": "Electric Latch Rune",
    "token": {
        "disposition": 0,
        "height": 1,
        "img": "systems/pf2e/icons/default-icons/hazard.svg",
        "name": "Electric Latch Rune",
        "width": 1
    },
    "type": "hazard"
}
