{
    "_id": "9PR9y0bi4JPKnHPR",
    "data": {
        "active": true,
        "alsoApplies": {
            "linked": [],
            "unlinked": []
        },
        "base": "Deafened",
        "description": {
            "value": "<p>You can't hear. You automatically critically fail Perception checks that require you to be able to hear. You take a -2 status penalty to Perception checks for initiative and checks that involve sound but also rely on other senses. If you perform an action with the auditory trait, you must succeed at a <strong>DC 5</strong> flat check or the action is lost; attempt the check after spending the action but before any effects are applied. You are immune to auditory effects.</p>"
        },
        "duration": {
            "perpetual": true,
            "text": "",
            "value": 0
        },
        "group": "senses",
        "hud": {
            "img": {
                "useStatusName": true,
                "value": "systems/pf2e/icons/conditions-2/deafened.webp"
            },
            "selectable": true,
            "statusName": "deafened"
        },
        "modifiers": [
            {
                "group": "perception-initiative",
                "type": "status",
                "value": -2
            }
        ],
        "overrides": [],
        "references": {
            "children": [],
            "immunityFrom": [],
            "overriddenBy": [],
            "overrides": []
        },
        "removable": true,
        "rules": [],
        "source": {
            "value": ""
        },
        "sources": {
            "hud": true
        },
        "traits": {
            "custom": "",
            "rarity": {
                "value": "common"
            },
            "value": []
        },
        "value": {
            "immutable": false,
            "isValued": false,
            "modifiers": [],
            "value": null
        }
    },
    "effects": [],
    "flags": {
        "pf2e": {
            "condition": true
        }
    },
    "img": "systems/pf2e/icons/conditions/deafened.webp",
    "name": "Deafened",
    "type": "condition"
}
