{
    "_id": "YyzIzLxn2UCFubj4",
    "data": {
        "boosts": {
            "0": {
                "value": [
                    "con",
                    "wis"
                ]
            },
            "1": {
                "value": [
                    "cha",
                    "con",
                    "dex",
                    "int",
                    "str",
                    "wis"
                ]
            }
        },
        "description": {
            "value": "<p><strong>Prerequisite</strong>: Region - Absalom and Starstone Isle</p>\n<hr />\n<p>Whether you washed warrior beasts below the Irorium's arena floor or tended to the mutated animals of a Puddle sideshow, you are experienced with all manner of weird wildlife.</p>\n<p>Choose two ability boosts. One must be to <strong>Constitution</strong> or <strong>Wisdom</strong>, and one is a free ability boost.</p>\n<p>You're trained in the Nature skill and the Animal Lore skill. You gain the @Compendium[pf2e.feats-srd.Train Animal]{Train Animal} skill feat.</p>"
        },
        "items": {
            "i5j8m": {
                "id": "nowEaHgIyij7im8F",
                "img": "systems/pf2e/icons/features/feats/feats.webp",
                "level": "1",
                "name": "Train Animal",
                "pack": "pf2e.feats-srd"
            }
        },
        "rules": [],
        "source": {
            "value": "Pathfinder Lost Omens: World Guide"
        },
        "trainedLore": "Animal Lore",
        "trainedSkills": {
            "value": [
                "nat"
            ]
        },
        "traits": {
            "custom": "",
            "rarity": {
                "value": "common"
            },
            "value": []
        }
    },
    "effects": [],
    "flags": {},
    "img": "systems/pf2e/icons/default-icons/background.svg",
    "name": "Menagerie Dung Sweeper",
    "type": "background"
}
