{
    "_id": "bCJ9p3P5uJDAtaUI",
    "data": {
        "boosts": {
            "0": {
                "value": [
                    "str",
                    "wis"
                ]
            },
            "1": {
                "value": [
                    "cha",
                    "con",
                    "dex",
                    "int",
                    "str",
                    "wis"
                ]
            }
        },
        "description": {
            "value": "<p>You earned a living wrenching precious minerals from the lightless depths of the earth. Adventuring might have seemed lucrative or glamorous compared to this backbreaking labor- and if you have to head back underground, this time you plan to do so armed with a real weapon instead of a miner's pick.</p>\n<p>Choose two ability boosts. One must be to <strong>Strength</strong> or <strong>Wisdom</strong>, and one is a free ability boost.</p>\n<p>You're trained in the Survival skill and the Mining Lore skill. You gain the @Compendium[pf2e.feats-srd.Terrain Expertise]{Terrain Expertise} skill feat with underground terrain.</p>"
        },
        "items": {
            "kvkjl": {
                "id": "4tTkRyOQ0VuRBac3",
                "img": "systems/pf2e/icons/features/feats/feats.webp",
                "level": "1",
                "name": "Terrain Expertise",
                "pack": "pf2e.feats-srd"
            }
        },
        "rules": [],
        "source": {
            "value": "Pathfinder Core Rulebook"
        },
        "trainedLore": "Mining Lore",
        "trainedSkills": {
            "value": [
                "sur"
            ]
        },
        "traits": {
            "custom": "",
            "rarity": {
                "value": "common"
            },
            "value": []
        }
    },
    "effects": [],
    "flags": {},
    "img": "systems/pf2e/icons/default-icons/background.svg",
    "name": "Miner",
    "type": "background"
}
