{
    "_id": "OjOpj9u1EdEUhKuX",
    "data": {
        "baseItem": null,
        "brokenThreshold": {
            "value": 0
        },
        "bulkCapacity": {
            "value": ""
        },
        "collapsed": {
            "value": false
        },
        "containerId": {
            "value": null
        },
        "description": {
            "value": "<p>One bulb of this tiny hourglass contains black sand, the other white. After even a few grains pass from one side to the other, it reverses its flow to keep the two sides in equilibrium. The spell DC of any spell cast by Activating this item is 17.</p>\n<ul>\n<li><strong>Armor</strong> You gain resistance 2 to negative.</li>\n<li><strong>Weapon</strong> After you cast a necromancy spell by Activating the sandglass, your Strikes with the weapon deal an additional 1d4 negative damage until the end of your next turn.</li>\n</ul>\n<p><strong>Activate</strong> Cast a Spell;</p>\n<p><strong>Effect</strong> You cast <em>@Compendium[pf2e.spells-srd.Chill Touch]{Chill Touch}</em>.</p>"
        },
        "equipped": {
            "value": false
        },
        "equippedBulk": {
            "value": ""
        },
        "hardness": {
            "value": 0
        },
        "hp": {
            "value": 0
        },
        "identification": {
            "misidentified": {},
            "status": "identified",
            "unidentified": {
                "data": {
                    "description": {
                        "value": ""
                    }
                },
                "img": "",
                "name": ""
            }
        },
        "invested": {
            "value": null
        },
        "level": {
            "value": 3
        },
        "maxHp": {
            "value": 0
        },
        "negateBulk": {
            "value": "0"
        },
        "preciousMaterial": {
            "value": null
        },
        "preciousMaterialGrade": {
            "value": null
        },
        "price": {
            "value": "55 gp"
        },
        "quantity": {
            "value": 1
        },
        "rules": [],
        "size": {
            "value": "med"
        },
        "source": {
            "value": "Pathfinder Secrets of Magic"
        },
        "stackGroup": {
            "value": ""
        },
        "traits": {
            "custom": "",
            "rarity": {
                "value": "common"
            },
            "value": [
                "magical",
                "necromancy",
                "spellheart"
            ]
        },
        "usage": {
            "value": "held-in-one-hand"
        },
        "weight": {
            "value": "-"
        }
    },
    "effects": [],
    "flags": {},
    "img": "systems/pf2e/icons/default-icons/equipment.svg",
    "name": "Grim Sandglass",
    "type": "equipment"
}
