{
    "_id": "ED3By5mICaJeiQYo",
    "data": {
        "MAP": {
            "value": ""
        },
        "ability": {
            "value": "str"
        },
        "baseItem": "staff",
        "bonus": {
            "value": 0
        },
        "bonusDamage": {
            "value": 0
        },
        "brokenThreshold": {
            "value": 0
        },
        "bulkCapacity": {
            "value": ""
        },
        "collapsed": {
            "value": false
        },
        "containerId": {
            "value": ""
        },
        "damage": {
            "damageType": "bludgeoning",
            "dice": 1,
            "die": "d4",
            "value": ""
        },
        "description": {
            "value": "<p>This rough metal staff is pitted and sandblasted, with thousands of nigh-imperceptible sand crystals embedded in its surface.</p>\n<p>While carrying the staff, you gain a +2 circumstance bonus to Occultism checks to identify aberrations and oozes native to the Darklands.</p>\n<p><strong>Activate</strong> Cast a Spell</p>\n<p><strong>Effect</strong> You expend a number of charges from the staff to cast a spell from its list.</p>\n<ul>\n<li><strong>Cantrip</strong> <em>@Compendium[pf2e.spells-srd.Know Direction]{Know Direction}</em>\n<p><strong>1st</strong> <em>@Compendium[pf2e.spells-srd.Create Water]{Create Water}</em> <em>@Compendium[pf2e.spells-srd.Purify Food and Drink]{Purify Food and Drink}</em> <em>@Compendium[pf2e.spells-srd.Unseen Servant]{Unseen Servant}</em></p></li>\n<li><strong>2nd</strong> <em>@Compendium[pf2e.spells-srd.Darkvision]{Darkvision}</em> <em>@Compendium[pf2e.spells-srd.Endure Elements]{Endure Elements}</em></li>\n<li><strong>3rd</strong> <em>@Compendium[pf2e.spells-srd.Earthbind]{Earthbind}</em> <em>@Compendium[pf2e.spells-srd.Neutralize Poison]{Neutralize Poison}</em> <em>@Compendium[pf2e.spells-srd.Wanderer's Guide]{Wanderer's Guide}</em></li>\n<li><strong>4th</strong> <em>@Compendium[pf2e.spells-srd.Air Walk]{Air Walk}</em> <em>@Compendium[pf2e.spells-srd.Hallucinatory Terrain]{Hallucinatory Terrain}</em> <em>@Compendium[pf2e.spells-srd.Rope Trick]{Rope Trick}</em></li>\n<li><strong>5th</strong> <em>@Compendium[pf2e.spells-srd.Pillars of Sand]{Pillars of Sand}</em> <em>@Compendium[pf2e.spells-srd.Veil]{Veil}</em></li>\n</ul>\n<p><strong>Craft Requirements</strong> Supply one casting of all listed levels of all listed spells.</p>\n<hr />\n<p>Automatically applied effects:</p>\n<ul>\n<li>+2 circumstance bonus to Occultism checks to identify aberrations and oozes native to the Darklands</li>\n</ul>"
        },
        "equipped": {
            "value": false
        },
        "equippedBulk": {
            "value": ""
        },
        "group": {
            "value": "club"
        },
        "hands": {
            "value": ""
        },
        "hardness": {
            "value": 0
        },
        "hp": {
            "value": 0
        },
        "identification": {
            "misidentified": {},
            "status": "identified",
            "unidentified": {
                "data": {
                    "description": {
                        "value": ""
                    }
                },
                "img": "",
                "name": ""
            }
        },
        "invested": {
            "value": false
        },
        "level": {
            "value": 12
        },
        "maxHp": {
            "value": 0
        },
        "negateBulk": {
            "value": "0"
        },
        "potencyRune": {
            "value": null
        },
        "preciousMaterial": {
            "value": ""
        },
        "preciousMaterialGrade": {
            "value": ""
        },
        "price": {
            "value": "1,850 gp"
        },
        "property1": {
            "critDamage": "",
            "critDamageType": "",
            "critDice": null,
            "critDie": "",
            "criticalConditionType": "",
            "criticalConditionValue": null,
            "damageType": "",
            "dice": null,
            "die": "",
            "strikeConditionType": "",
            "strikeConditionValue": null,
            "value": ""
        },
        "propertyRune1": {
            "value": ""
        },
        "propertyRune2": {
            "value": ""
        },
        "propertyRune3": {
            "value": ""
        },
        "propertyRune4": {
            "value": ""
        },
        "quantity": {
            "value": 1
        },
        "range": {
            "value": "melee"
        },
        "reload": {
            "value": ""
        },
        "rules": [
            {
                "key": "FlatModifier",
                "label": "Staff of the Black Desert (identify oozes & aberrations of Darklands)",
                "predicate": {
                    "all": [
                        "action:recall-knowledge",
                        "identify",
                        "target:native-darklands"
                    ],
                    "any": [
                        "target:ooze",
                        "target:aberration"
                    ]
                },
                "selector": "occultism",
                "type": "circumstance",
                "value": 2
            }
        ],
        "size": {
            "value": "med"
        },
        "source": {
            "value": "Pathfinder #155: Lord of the Black Sands"
        },
        "splashDamage": {
            "value": null
        },
        "stackGroup": {
            "value": ""
        },
        "strikingRune": {
            "value": ""
        },
        "traits": {
            "custom": "",
            "rarity": {
                "value": "uncommon"
            },
            "value": [
                "divination",
                "magical",
                "staff",
                "two-hand-d8"
            ]
        },
        "usage": {
            "value": "held-in-one-hand"
        },
        "weaponType": {
            "value": "simple"
        },
        "weight": {
            "value": "1"
        }
    },
    "effects": [],
    "flags": {},
    "img": "systems/pf2e/icons/equipment/staves/staff-of-the-black-desert.webp",
    "name": "Staff of the Black Desert",
    "type": "weapon"
}
