{
    "_id": "mgcQVqHyxDzNWT3e",
    "data": {
        "attributes": {
            "ac": {
                "value": 10
            },
            "hardness": 0,
            "hasHealth": false,
            "hp": {
                "details": "",
                "max": 0,
                "temp": 0,
                "value": 0
            },
            "stealth": {
                "details": "(legendary) to realize the chamber is a complex rotating trap before it triggers. No check is necessary to notice the platforms and the pit.",
                "value": 36
            }
        },
        "creatureType": "",
        "details": {
            "description": "Several swinging pendulums of force cleave through the room across the platforms, knocking people into the pit.",
            "disable": "<p><span data-pf2-check=\"arcana\" data-pf2-traits=\"complex,magical,mechanical,trap\" data-pf2-label=\"Deactivate a Pendulum Blade DC\" data-pf2-dc=\"48\" data-pf2-show-dc=\"gm\">Arcana</span> (legendary), <span data-pf2-check=\"thievery\" data-pf2-traits=\"complex,magical,mechanical,trap\" data-pf2-label=\"Deactivate a Pendulum Blade DC\" data-pf2-dc=\"44\" data-pf2-show-dc=\"gm\">Thievery</span> (master), or <em>@Compendium[pf2e.spells-srd.Dispel Magic]{Dispel Magic}</em> (9th level; counteract DC 44) on a platform to deactivate its pendulum blade; once all five platforms have been deactivated, the trap is disabled and the room rotates back into position along the exits. <span data-pf2-check=\"thievery\" data-pf2-traits=\"complex,magical,mechanical,trap\" data-pf2-label=\"Rotate the Room Open DC\" data-pf2-dc=\"48\" data-pf2-show-dc=\"gm\">Thievery</span> (legendary) from any blocked exit to activate the rotating mechanism and rotate the room back into position before the trap has been disabled.</p>",
            "isComplex": true,
            "level": {
                "value": 20
            },
            "reset": "<p>The trap resets after 1 hour. If the <em>@Compendium[pf2e.spells-srd.Darkness]{Darkness}&nbsp;</em>throughout the room has been dispelled, the <em>darkness</em> in the room returns when the trap resets.</p>",
            "routine": "(5 actions) For each active platform, the trap uses an action to create a pendulum of force to swing down along a straight line between the platform and one other creature in the room that isn’t on the platform (if any). The trap makes a pendulum blade attack against any creature in that line. For each platform deactivated, reduce the number of actions the trap takes in its routine by 1. "
        },
        "saves": {
            "fortitude": {
                "saveDetail": "",
                "value": 0
            },
            "reflex": {
                "saveDetail": "",
                "value": 0
            },
            "will": {
                "saveDetail": "",
                "value": 0
            }
        },
        "source": {
            "value": ""
        },
        "statusEffects": [],
        "traits": {
            "ci": [],
            "di": {
                "custom": "",
                "selected": {},
                "value": []
            },
            "dr": [],
            "dv": [],
            "rarity": {
                "value": "common"
            },
            "size": {
                "value": "med"
            },
            "traits": {
                "custom": "",
                "value": [
                    "magical",
                    "mechanical",
                    "trap"
                ]
            }
        }
    },
    "effects": [],
    "flags": {},
    "img": "systems/pf2e/icons/default-icons/hazard.svg",
    "items": [
        {
            "_id": "u88o2ifaxgilrm3b",
            "data": {
                "actionCategory": {
                    "value": "offensive"
                },
                "actionType": {
                    "value": "reaction"
                },
                "actions": {
                    "value": ""
                },
                "description": {
                    "value": "<div data-visibility=\"gm\"><strong>Trigger</strong> A creature disturbs any of the platforms, or anything falls into the pit</div> <hr /><p><strong>Effect</strong> The room rotates 45 degrees, closing off the room by shifting its exits to face bare walls. A pendulum of force swings across the platform with the armor on it, knocking the armor into the pit and making a pendulum blade Strike against a creature on that platform (if any). The trap then rolls for initiative.</p>"
                },
                "requirements": {
                    "value": ""
                },
                "rules": [],
                "slug": null,
                "source": {
                    "value": ""
                },
                "traits": {
                    "custom": "",
                    "rarity": {
                        "value": "common"
                    },
                    "value": []
                },
                "trigger": {
                    "value": ""
                }
            },
            "effects": [],
            "flags": {},
            "img": "systems/pf2e/icons/actions/Reaction.webp",
            "name": "Locking Room",
            "sort": 0,
            "type": "action"
        },
        {
            "_id": "b85yl00yvz9yloj9",
            "data": {
                "attack": {
                    "value": ""
                },
                "attackEffects": {
                    "custom": "",
                    "value": [
                        "no-map"
                    ]
                },
                "bonus": {
                    "value": 38
                },
                "damageRolls": {
                    "uZOOngQUA0good2G": {
                        "damage": "4d10+22",
                        "damageType": "force"
                    }
                },
                "description": {
                    "value": ""
                },
                "rules": [],
                "slug": null,
                "source": {
                    "value": ""
                },
                "traits": {
                    "custom": "",
                    "rarity": {
                        "value": "common"
                    },
                    "value": [
                        "fatal-d12",
                        "force",
                        "magical"
                    ]
                },
                "weaponType": {
                    "value": "melee"
                }
            },
            "effects": [],
            "flags": {},
            "img": "icons/svg/mystery-man.svg",
            "name": "Pendulum Blade",
            "sort": 0,
            "type": "melee"
        },
        {
            "_id": "dsys01koviayuuf4",
            "data": {
                "actionCategory": {
                    "value": "offensive"
                },
                "actionType": {
                    "value": "passive"
                },
                "actions": {
                    "value": null
                },
                "description": {
                    "value": "<p>A creature hit by a pendulum blade must succeed at a <span data-pf2-check=\"reflex\" data-pf2-label=\"Pendulum Shove DC\" data-pf2-dc=\"44\" data-pf2-show-dc=\"gm\">Reflex</span> save or be moved 5 feet along the line of the pendulum's swing. This is forced movement.</p>"
                },
                "requirements": {
                    "value": ""
                },
                "rules": [],
                "slug": null,
                "source": {
                    "value": ""
                },
                "traits": {
                    "custom": "",
                    "rarity": {
                        "value": "common"
                    },
                    "value": []
                },
                "trigger": {
                    "value": ""
                }
            },
            "effects": [],
            "flags": {},
            "img": "systems/pf2e/icons/actions/Passive.webp",
            "name": "Pendulum Shove",
            "sort": 0,
            "type": "action"
        },
        {
            "_id": "tfCSRvXxmrtunFjE",
            "data": {
                "actionCategory": {
                    "value": "interaction"
                },
                "actionType": {
                    "value": "passive"
                },
                "actions": {
                    "value": null
                },
                "description": {
                    "value": "<p>The Pendulum Blade is unaffected by Multiple Attack Penalty</p>"
                },
                "requirements": {
                    "value": ""
                },
                "rules": [],
                "slug": null,
                "source": {
                    "value": ""
                },
                "traits": {
                    "custom": "",
                    "rarity": {
                        "value": "common"
                    },
                    "value": []
                },
                "trigger": {
                    "value": ""
                }
            },
            "effects": [],
            "flags": {},
            "img": "systems/pf2e/icons/actions/Passive.webp",
            "name": "No MAP",
            "sort": 0,
            "type": "action"
        }
    ],
    "name": "Pendulum Pit",
    "token": {
        "disposition": 0,
        "height": 1,
        "img": "systems/pf2e/icons/default-icons/hazard.svg",
        "name": "Pendulum Pit",
        "width": 1
    },
    "type": "hazard"
}
