{
    "_id": "grkggNQnOxWWsjBH",
    "data": {
        "actionCategory": {
            "value": "offensive"
        },
        "actionType": {
            "value": "action"
        },
        "actions": {
            "value": 2
        },
        "description": {
            "value": "<p>Your eidolon exhales a blast of destructive energy. Your eidolon deals [[/r {1d6}[cold]]]{1d6 cold damage} to all creatures in a <span data-pf2-effect-area=\"line\" data-pf2-distance=\"60\">60-foot line</span>, with a basic Reflex save against your spell DC.</p>\n<p>Your eidolon then can't use their Breath Weapon again for the next [[/r 1d4 #rounds]]{1d4 rounds}.</p>\n<p>At 3rd level and every 2 levels thereafter, the damage increases by 1d6. [[/r (floor(@details.level.value/2))d6 #cold]]{Levelled Damage}</p>"
        },
        "requirements": {
            "value": ""
        },
        "rules": [],
        "source": {
            "value": ""
        },
        "traits": {
            "custom": "",
            "rarity": {
                "value": "common"
            },
            "value": [
                "arcane",
                "cold",
                "eidolon",
                "evocation"
            ]
        },
        "trigger": {
            "value": ""
        },
        "weapon": {
            "value": ""
        }
    },
    "effects": [],
    "flags": {},
    "img": "systems/pf2e/icons/actions/TwoActions.webp",
    "name": "Breath Weapon (Cold) (Line)",
    "type": "action"
}
