{
    "_id": "s2RrhZx1f1X4YnYV",
    "data": {
        "actionCategory": {
            "value": "offensive"
        },
        "actionType": {
            "value": "reaction"
        },
        "actions": {
            "value": null
        },
        "description": {
            "value": "<p><strong>Requirements</strong> You aren't immune to electricity;</p>\n<p><strong>Trigger</strong> A creature within 30 feet of you is targeted by an electricity effect or is in the area of an electricity effect.</p>\n<p><strong>Effect</strong> You draw the electricity to yourself like a lightning rod in order to shield the target. If the triggering effect was targeted, it targets you instead of the triggering creature. If it was an area effect, it leaps from the triggering creature's space to fill your space instead. This doesn't divert lightning from any other creatures targeted by or in the area of the lightning. You're automatically hit by or automatically fail your save against the effect. You then can't Divert Lightning for [[/r 1d4 #rounds]]{1d4 rounds}.</p>"
        },
        "requirements": {
            "value": ""
        },
        "rules": [],
        "source": {
            "value": ""
        },
        "traits": {
            "custom": "",
            "rarity": {
                "value": "common"
            },
            "value": [
                "electricity"
            ]
        },
        "trigger": {
            "value": ""
        }
    },
    "effects": [],
    "flags": {},
    "img": "systems/pf2e/icons/actions/Reaction.webp",
    "name": "Divert Lightning",
    "type": "action"
}
