{
    "_id": "GNFNDyx8nfNXrgV6",
    "data": {
        "description": {
            "value": "<p>The creature takes a -4 status penalty to Stealth checks for 5 minutes or until it spends a 3-action activity, which has the manipulate trait, to remove the glitter. The glitter continues to fall around the creature until completely removed, leaving a trail behind it as it moves and revealing its rough location; the creature is @Compendium[pf2e.conditionitems.Hidden]{Hidden}, rather than @Compendium[pf2e.conditionitems.Undetected]{Undetected}, to any creature that can see the glitter whenever it would otherwise have been undetected.</p>"
        },
        "duration": {
            "expiry": "turn-end",
            "sustained": false,
            "unit": "minutes",
            "value": 5
        },
        "level": {
            "value": 4
        },
        "rules": [
            {
                "key": "FlatModifier",
                "label": "Glittering Snare (Success)",
                "selector": "stealth",
                "type": "status",
                "value": -4
            }
        ],
        "source": {
            "value": ""
        },
        "start": {
            "initiative": null,
            "value": 0
        },
        "target": null,
        "tokenIcon": {
            "show": false
        },
        "traits": {
            "custom": "",
            "rarity": {
                "value": "common"
            },
            "value": []
        }
    },
    "effects": [],
    "flags": {},
    "img": "systems/pf2e/icons/default-icons/effect.svg",
    "name": "Effect: Glittering Snare (Critical Failure)",
    "type": "effect"
}
