{
    "_id": "mG6S6zm6hxaF7Tla",
    "data": {
        "description": {
            "value": "<p><strong>Duration</strong> 10 minute</p>\n<p><strong>Activate</strong> <span class=\"pf2-icon\">1</span> Interact</p>\n<hr />\n<p>This elixir sharpens your mind and allows you to see through lies, falsehoods, and magical trickery. You gain a +2 item bonus to Perception checks and Perception DCs to notice falsehoods, whether they're spoken lies or written deceit. You gain this same item bonus to Will saves.</p>"
        },
        "duration": {
            "expiry": "turn-end",
            "sustained": false,
            "unit": "minutes",
            "value": 10
        },
        "level": {
            "value": 6
        },
        "rules": [
            {
                "key": "FlatModifier",
                "predicate": {
                    "all": [
                        "notice-falsehoods"
                    ]
                },
                "selector": "perception",
                "type": "item",
                "value": 2
            },
            {
                "key": "FlatModifier",
                "selector": "will",
                "type": "item",
                "value": 2
            }
        ],
        "source": {
            "value": ""
        },
        "start": {
            "initiative": null,
            "value": 0
        },
        "target": null,
        "tokenIcon": {
            "show": true
        },
        "traits": {
            "custom": "",
            "rarity": {
                "value": "common"
            },
            "value": []
        }
    },
    "effects": [],
    "flags": {},
    "img": "systems/pf2e/icons/equipment/alchemical-items/alchemical-elixirs/skeptics-elixir.webp",
    "name": "Effect: Skeptic's Elixir (Moderate)",
    "type": "effect"
}
