{
    "_id": "uydTiyN5AzhBnQY8",
    "content": "<h1 class=\"title\">Ardad Lili (The End of Innocence) [LE]</h1>\n<p class=\"title\"><span id=\"ctl00_MainContent_DetailedOutput\"><span id=\"ctl00_MainContent_DetailedOutput\">When mortals were young, before Asmodeus conquered Hell, Ardad Lili was already manipulating amorous and lustful mortals to swear fealty to her, amassing power from their souls. She fled the realm of Nirvana during the Exodus, taking up residence in Avernus and continuing to gather an army of damned souls and female devils who share her ambitions. The Serpent Muse has never forgotten the censures and cruel insults spewed by the other natives of Nirvana, and she seeks to someday rule not a layer of Hell, but a realm of the heavens. Herself a passionate being, she draws similarly passionate followers.</p>\n<p><strong>Edicts</strong> Manipulate others with false promises, aid women who have been unfairly maligned</p>\n<p><strong>Anathema</strong> Give someone more than you receive from them, allow yourself to be swayed by lust</p>\n<p><strong>Follower Alignments</strong> LN, LE, NE</span></p>\n<p></span></p>\n<h2 class=\"title\">Devotee Benefits</h2>\n<div>\n<div><strong>Divine Ability</strong> Intelligence or Charisma</div>\n<div><strong>Divine Font</strong> harm</div>\n<div><strong>Divine Skill</strong> Diplomacy</div>\n<div><strong>Favored Weapon</strong> dagger</div>\n<div><strong>Domains</strong> creation, darkness, passion, wyrmkin</div>\n<div><strong>Cleric Spells</strong> 1st: charm, 3rd: enthrall, 4th: suggestion</div>\n</div>",
    "flags": {},
    "name": "Ardad Lili",
    "permission": {
        "default": 0
    }
}
