{
    "_id": "tcXrtRYCOr2EmgGB",
    "content": "<h1 class=\"title\">Charon (The Boatman) [NE]</h1>\n<p class=\"title\"><span id=\"ctl00_MainContent_DetailedOutput\"><span id=\"ctl00_MainContent_DetailedOutput\">The First Horseman, eldest of his counterparts and the Boatman of the Styx, is a patient and cunning figure. Content to allow plans to take hold over time, Charon freely offers his power only to collect on his bargain decades or even centuries later. As the Horseman of Death, Charon concerns himself with miserable, pointless deaths that are devoid of any faith, mercy, or meaning, dragging those who perish in the depths of hopelessness and nihilism down into Abaddon and oblivion.</p>\n<p></span></span></p>\n<p class=\"title\"><span id=\"ctl00_MainContent_DetailedOutput\"><span id=\"ctl00_MainContent_DetailedOutput\">Charon is the last surviving member of the original Horsemen who overthrew the First Daemon in their fit of jealous contempt. Holding knowledge from the earliest days of existence, he alone knows Abaddon's true history, but he keeps it to himself. This allows him to exploit opportunities with curious mortals, sweeping more souls into his dread kingdom.</p>\n<p></span></span></p>\n<p class=\"title\"><span id=\"ctl00_MainContent_DetailedOutput\"><span id=\"ctl00_MainContent_DetailedOutput\">Charon appears as a tall, looming man dressed in a frayed cloak and gripping a lantern staff firmly in one hand, but it is widely believed that this form is a facade. His true face may be unknowable, hidden away at the end of the Styx within his sunken palace, the Drowning Court. Some theorize that this form is nothing more than a mouthpiece for a far more alien entity that lies beneath the waters of the Styx. Whatever the case, Charon is a timeless being whose bargains, promises, and bottomless hunger stretch back to the earliest days.</p>\n<p><strong>Edicts</strong> End all mortal life, exploit those who fear death</p>\n<p><strong>Anathema</strong> Offer anything for free, extend mortal lifespans, grant true salvation to the doomed or dying</p>\n<p><strong>Areas of Concern</strong> death</p>\n<p><strong>Follower Alignments</strong> LE, NE, CE</span></p>\n<p></span></p>\n<h2 class=\"title\">Devotee Benefits</h2>\n<div>\n<div><strong>Divine Ability</strong> Constitution or Intelligence</div>\n<div><strong>Divine Font</strong> harm</div>\n<div><strong>Divine Skill</strong> Occultism</div>\n<div><strong>Favored Weapon</strong> staff</div>\n<div><strong>Domains</strong> death, knowledge, soul, water</div>\n<div><strong>Cleric Spells</strong> 1st: grim tendrils, 4th: crushing despair, 9th: weird</div>\n</div>",
    "flags": {},
    "name": "Charon",
    "permission": {
        "default": 0
    }
}
