{
    "_id": "M3eb94Nd6uXti2IK",
    "content": "<h1 class=\"title\">Daikitsu (Lady of Foxes) [N]</h1>\n<p class=\"title\"><span id=\"ctl00_MainContent_DetailedOutput\"><span id=\"ctl00_MainContent_DetailedOutput\"><img style=\"float: right;\" src=\"https://i.imgur.com/FkvnKIG.png\" alt=\"\" width=\"119\" height=\"117\" />It is not surprising that the Tian Xia goddess Daikitsu is a common object of veneration, given that she has the everyday subjects of rice, agriculture, and craftsmanship under her divine purview. Her holy symbol is that of a nine-tailed fox.</span></span></p>\n<p class=\"title\"><span id=\"ctl00_MainContent_DetailedOutput\"><span id=\"ctl00_MainContent_DetailedOutput\"><strong>Edicts</strong> Ensure the health of crops and vegetation, perfect a craft or trade, leave offerings for foxes, celebrate the turning of the seasons</p>\n<p><strong>Anathema</strong> Mistreat your tools, pass a beggar without giving alms, discriminate against sex workers or the lower class</p>\n<p><strong>Follower Alignments</strong> NG, LN, N, CN</span></p>\n<p></span></p>\n<h2 class=\"title\">Devotee Benefits</h2>\n<div>\n<div><strong>Divine Ability</strong> Dexterity or Intelligence</div>\n<div><strong>Divine Font</strong> heal</div>\n<div><strong>Divine Skill</strong> Crafting</div>\n<div><strong>Favored Weapon</strong> flail</div>\n<div><strong>Domains</strong> change, creation, family, nature</div>\n<div><strong>Cleric Spells</strong> 1st: pest form, 2nd: humanoid form, 5th: illusory scene</div>\n</div>",
    "flags": {},
    "name": "Daikitsu",
    "permission": {
        "default": 0
    }
}
