{
    "_id": "bF77ydtptI54STl9",
    "content": "<h1 class=\"title\">Jaidz (Fearless Claw) [NG]</h1>\n<p class=\"title\"><strong>Jaidz</strong> is a powerful agathion Empyreal lord who seeks to inspire courage in the cowardly and immature through compassion and guidance.</p>\n<p class=\"title\"><span id=\"ctl00_MainContent_DetailedOutput\"><span id=\"ctl00_MainContent_DetailedOutput\"><strong>Edicts</strong> Forgive cowards and offer them guidance, encourage others to test their mettle, face and learn from your fears</p>\n<p><strong>Anathema</strong> Punish another creature for cowardice, routinely avoid that which scares you</p>\n<p><strong>Follower Alignments</strong> LG, NG, CG, N</span></p>\n<p></span></p>\n<h2 class=\"title\">Devotee Benefits</h2>\n<div>\n<div><strong>Divine Ability</strong> Strength or Wisdom</div>\n<div><strong>Divine Font</strong> heal</div>\n<div><strong>Divine Skill</strong> Intimidation</div>\n<div><strong>Favored Weapon</strong> shortsword</div>\n<div><strong>Domains</strong> confidence, nightmares, protection, travel</div>\n<div><strong>Cleric Spells</strong> 1st: longstrider, 3rd: haste, 7th: mask of terror</div>\n</div>",
    "flags": {},
    "name": "Jaidz",
    "permission": {
        "default": 0
    }
}
