{
    "_id": "zhPhYge7VJbIlJvA",
    "content": "<h1 class=\"title\">Kols (Oath-Keeper) [LN]</h1>\n<p class=\"title\"><span id=\"ctl00_MainContent_DetailedOutput\"><span id=\"ctl00_MainContent_DetailedOutput\">Kols, known to his faithful as the Oath-Keeper (or Oathkeeper), is the dwarven demigod of duty. His personal duties are following and serving his father Torag and protecting his brother Grundinnar, and sister Bolka. He is also the deity tasked with exacting punishment on those poor souls who shirk their responsibilities or break sworn oaths and solemn promises. Some believe that Dranngvit, the dwarven goddess of vengeance, is Kols' true mother.</p>\n<p></span><span id=\"ctl00_MainContent_DetailedOutput\"><strong>Edicts</strong> Seek those that break oaths and enforce just restitution, uphold your promises</p>\n<p><strong>Anathema</strong> Lie, dishonor yourself or your family, shirk your duties, break an oath</p>\n<p><strong>Follower Alignments</strong> LG, LN</span></p>\n<p></span></p>\n<h2 class=\"title\">Devotee Benefits</h2>\n<div>\n<div><strong>Divine Ability</strong> Strength or Wisdom</div>\n<div><strong>Divine Font</strong> harm or heal</div>\n<div><strong>Divine Skill</strong> Society</div>\n<div><strong>Favored Weapon</strong> light hammer</div>\n<div><strong>Domains</strong> duty, knowledge, might, truth</div>\n<div><strong>Cleric Spells</strong> 1st: unseen servant, 4th: suggestion, 8th: unrelenting observation</div>\n</div>",
    "flags": {},
    "name": "Kols",
    "permission": {
        "default": 0
    }
}
