{
    "_id": "JcIf4uwKLxEWdplI",
    "content": "<h1 class=\"title\">Kostchtchie (The Deathless Frost) [CE]</h1>\n<p class=\"title\"><span id=\"ctl00_MainContent_DetailedOutput\"><span id=\"ctl00_MainContent_DetailedOutput\"><strong>Edicts</strong> Avenge all slights three times over, kill all witches</p>\n<p><strong>Anathema</strong> Make a deal with Baba Yaga or her children, defer to or obey a woman</p>\n<p><strong>Follower Alignments</strong> NE, CE</span></p>\n<p></span></p>\n<h2 class=\"title\">Devotee Benefits</h2>\n<div>\n<div><strong>Divine Ability</strong> Strength or Constitution</div>\n<div><strong>Divine Font</strong> harm</div>\n<div><strong>Divine Skill</strong> Athletics</div>\n<div><strong>Favored Weapon</strong> warhammer</div>\n<div><strong>Domains</strong> cold, destruction, might, zeal</div>\n<div><strong>Cleric Spells</strong> 1st: chilling spray, 2nd: enlarge, 5th: cone of cold</div>\n</div>",
    "flags": {},
    "name": "Kostchtchie",
    "permission": {
        "default": 0
    }
}
