{
    "_id": "sNjPI1iaS8Z43YJf",
    "content": "<h1 class=\"title\">Mammon (The Argent Prince) [LE]</h1>\n<p class=\"title\"><span id=\"ctl00_MainContent_DetailedOutput\"><span id=\"ctl00_MainContent_DetailedOutput\">Mammon, the Grasping One, oversees the vast treasuries of Hell secured in the vaults of Erebus, Hell's third layer. As his angelic form was slain, he has no form of his own, so instead he infuses the very wealth that he guards, taking forms composed of riches and extending his senses out through each nigh-uncountable coin-he knows well the exact sum held in Hell's vaults and the greatest treasures among them. His worshippers are the greedy rich and poor alike, and he often arranges for such mortals to stumble across a \"lucky copper\" through which he whispers encouragements for the bearer to indulge in greater and greater vices, eventually claiming their soul as his own.</p>\n<p><strong>Edicts</strong> Gain financial control over others, gather new wealth, count your riches</p>\n<p><strong>Anathema</strong> Leave the cult of Mammon, allow those who steal from you to go unpunished</p>\n<p><strong>Follower Alignments</strong> LE</span></p>\n<p></span></p>\n<h2 class=\"title\">Devotee Benefits</h2>\n<div>\n<div><strong>Divine Ability</strong> Wisdom or Charisma</div>\n<div><strong>Divine Font</strong> harm</div>\n<div><strong>Divine Skill</strong> Thievery</div>\n<div><strong>Favored Weapon</strong> spear</div>\n<div><strong>Domains</strong> ambition, creation, toil, wealth</div>\n<div><strong>Cleric Spells</strong> 1st: shattering gem, 4th: creation, 7th: magnificent mansion</div>\n</div>",
    "flags": {},
    "name": "Mammon",
    "permission": {
        "default": 0
    }
}
