{
    "_id": "hWTTS0e7J9hJfsp3",
    "content": "<h1 class=\"title\">Matravash (The Wide Water) [LN]</h1>\n<p class=\"title\"><span id=\"ctl00_MainContent_DetailedOutput\"><span id=\"ctl00_MainContent_DetailedOutput\"><strong>Edicts</strong> Aid the persecuted, accommodate and facilitate others, practice contemplation and restraint</p>\n<p><strong>Anathema</strong> Destroy lotus fields, interfere with the flow of the Matra river, pollute clean water, reveal the location of nonevil fugitives</p>\n<p><strong>Follower Alignments</strong> LG, LN, N</span></p>\n<p></span></p>\n<h2 class=\"title\">Devotee Benefits</h2>\n<div>\n<div><strong>Divine Ability</strong> Constitution or Wisdom</div>\n<div><strong>Divine Font</strong> heal</div>\n<div><strong>Divine Skill</strong> Survival</div>\n<div><strong>Favored Weapon</strong> whip</div>\n<div><strong>Domains</strong> cities, nature, travel, water</div>\n<div><strong>Cleric Spells</strong> 1st: share lore, 3rd: slow, 4th: speak with plants</div>\n</div>",
    "flags": {},
    "name": "Matravash",
    "permission": {
        "default": 0
    }
}
