{
    "_id": "aTYy1WHwAZiuei4h",
    "content": "<h1 class=\"title\">Tsukiyo (Prince of the Moon) [LG]</h1>\n<p class=\"title\"><span id=\"ctl00_MainContent_DetailedOutput\"><span id=\"ctl00_MainContent_DetailedOutput\"><img style=\"float: right;\" src=\"https://2e.aonprd.com/Images/Deities/Tsukiyo.png\" alt=\"\" width=\"119\" height=\"119\" /></span><span id=\"ctl00_MainContent_DetailedOutput\">The surface of Golarion's moon is marred with a great scar, and the people of Tian Xia say this is where Tsukiyo, the Prince of the Moon, was struck down by his envious brother @Compendium[pf2e.deities.Fumeiyoshi]{Fumeiyoshi}. When his lover @Compendium[pf2e.deities.Shizuru]{Shizuru} found him the next morning, her tears mixed with his blood to create the first pieces of jade. Shizuru brought him to @Compendium[pf2e.deities.Qi Zhong]{Qi Zhong}, the god of medicine, who resurrected him; but his experience on the other side changed him from a boisterous and carefree soul to a thoughtful and temperamental one. He now sees the world differently from most-something that has strained his relationships and made it difficult for him to relate to others, but has also allowed him to offer his understanding and quiet comfort to those who are lost, demonized, or misunderstood.</p>\n<p><strong>Edicts</strong> provide aid and counsel without judgment to those who seek help, help the dead find their rest, amplify or help speak for the powerless and demonized</p>\n<p><strong>Anathema</strong> harm another out of envy, force aid on those who do not want it, inflict harmful mental effects on others as punishment</p>\n<p><strong>Areas of Concern</strong> jade, the moon, spirits</p>\n<p><strong>Follower Alignments</strong> LG, NG, CG, LN, N</span></p>\n<p></span></p>\n<h2 class=\"title\">Devotee Benefits</h2>\n<div>\n<div><strong>Divine Ability</strong> Constitution or Intelligence</div>\n<div><strong>Divine Font</strong> heal</div>\n<div><strong>Divine Skill</strong> Occultism</div>\n<div><strong>Favored Weapon</strong> spear</div>\n<div><strong>Domains</strong> delirium, moon, repose, soul</div>\n<div><strong>Alternate Domains</strong> change</div>\n<div><strong>Cleric Spells</strong> 1st: soothe, 2nd: mirror image, 5th: hallucination</div>\n</div>\n<h2>Divine Intercession</h2>\n<p><span id=\"ctl00_MainContent_DetailedOutput\">Ever mercurial, the Prince of the Moon gives his blessings rarely and somewhat spontaneously. An understanding soul, he is as slow to curse as he is to bless.</p>\n<p><strong>Minor Boon</strong>: Tsukiyo's simplest show of gratitude is a gift of clarity. Once, when you roll a failure on a saving throw against a mental effect, you get a critical success instead. Tsukiyo typically grants this boon against a particularly consequential mental effect.</p>\n<p><strong>Moderate Boon</strong>: Tsukiyo watches over you and guards your sleep. You are guaranteed a peaceful night's rest no matter what conditions you are sleeping in. Even nightmare and similar abilities can't disrupt your sleep unless they come from a deity, artifact, or similarly powerful source.</p>\n<p><strong>Major Boon</strong>: Tsukiyo shares some of his own nature and can lead a favored soul back along the same path he has walked. The next time you would die, you are instead instantly restored to full health and lose any negative conditions you have.</p>\n<p><strong>Minor Curse</strong>: Those who offend Tsukiyo find that light actively shuns them. You lose any low-light vision or darkvision you have, and you treat all light levels as one step lower.</p>\n<p><strong>Moderate Curse</strong>: If Tsukiyo is particularly offended by someone, they may find themselves lost in delusions of moonlight. When attempting to navigate or find something at night, if you roll a success or critical success on your Perception check, Survival check, or other check to do so, you get a failure instead.</p>\n<p><strong>Major Curse</strong>: When Tsukiyo truly loses patience with someone, he forces them to experience the hardships of others firsthand. Whenever you touch another creature or another creature touches you, you immediately gain any negative curses, diseases, and conditions they are suffering. These effects spread to you even when you Strike another creature or a creature Strikes you.</span></p>",
    "flags": {},
    "name": "Tsukiyo",
    "permission": {
        "default": 0
    }
}
