{
    "_id": "LLMTMgARSTlO7S9U",
    "content": "<h1 class=\"title\">Zyphus (The Grim Harvestman) [NE]</h1>\n<p><span id=\"ctl00_MainContent_DetailedOutput\"><strong>Edicts</strong> Set pointless traps, spread nihilism, encourage deadly accidents</p>\n<p><strong>Anathema</strong> Spread hope, provide aid to Pharasmins</p>\n<p><strong>Follower Alignments</strong> NE, CE</span></p>\n<h2 class=\"title\">Devotee Benefits</h2>\n<div>\n<div>\n<div><strong>Divine Ability</strong> Dexterity or Constitution</div>\n<div><strong>Divine Font</strong> harm</div>\n<div><strong>Divine Skill</strong> Thievery</div>\n<div><strong>Favored Weapon</strong> pick</div>\n<div><strong>Domains</strong> death, sorrow, soul, undeath</div>\n<div><strong>Cleric Spells</strong> 1st: ill omen, 2nd: shatter, 6th: phantasmal calamity</div>\n</div></div>",
    "flags": {},
    "name": "Zyphus",
    "permission": {
        "default": 0
    }
}
