{
    "_id": "YYPjndZ7tqRQLtAH",
    "data": {
        "actionCategory": {
            "value": ""
        },
        "actionType": {
            "value": "passive"
        },
        "actions": {
            "value": null
        },
        "description": {
            "value": "<p>When you cast sigil, you can modify the spell to add the following heightened entry.</p>\n<hr />\n<p><strong>Heightened (4th)</strong> You attune yourself to the marked target. While the spell lasts, you can spend a single action, which has the concentrate, detection, and divination traits, to attempt to locate the target, learning the direction to the target as long as you are within 1 mile of it. If the target is a creature or a creature is in possession of the target object, the creature can attempt a Will saving throw against your spell DC. If it succeeds, your attempt to locate the target fails and you can't attempt this again for 1 day. You can only have a single target marked with a sigil modified in this way. If you Cast this Spell again on a second target, the sigil spell on the first target ends, and your mark fades.</p>"
        },
        "featType": {
            "value": "archetype"
        },
        "level": {
            "value": 8
        },
        "location": "",
        "prerequisites": {
            "value": [
                {
                    "value": "Tracing Sigil"
                }
            ]
        },
        "rules": [],
        "source": {
            "value": ""
        },
        "traits": {
            "custom": "",
            "rarity": {
                "value": "common"
            },
            "value": [
                "archetype"
            ]
        }
    },
    "effects": [],
    "flags": {},
    "img": "systems/pf2e/icons/default-icons/feats.webp",
    "name": "Beacon Mark",
    "type": "feat"
}
