{
    "_id": "XLoRtMn48f2KKvsu",
    "data": {
        "actionCategory": {
            "value": "offensive"
        },
        "actionType": {
            "value": "action"
        },
        "actions": {
            "value": 1
        },
        "description": {
            "value": "<p><strong>Requirements</strong> You're wielding a loaded firearm. Sometimes taking the shortest distance between two points involves removing an obstacle or two. You shoot your firearm at a lock within 10 feet. Make an attack roll against the DC required to @Compendium[pf2e.actionspf2e.Pick a Lock]{Pick the Lock}</p>\n<hr />\n<p><strong>Critical Success</strong> You open the lock, or you achieve two successes toward opening a complex lock.</p>\n<p><strong>Success</strong> You open the lock, or you achieve one success toward opening a complex lock.</p>\n<p><strong>Failure</strong> You fail to open the lock, and your shot makes it harder to open. Future attempts to Pick the Lock or Blast the Lock take a -2 circumstance penalty.</p>\n<p><strong>Critical Failure</strong> You fail to open the lock, and your shot makes it much harder to open. Future attempts to Pick the Lock or Blast the Lock take a -4 circumstance penalty.</p>"
        },
        "featType": {
            "value": "class"
        },
        "level": {
            "value": 1
        },
        "location": "",
        "prerequisites": {
            "value": []
        },
        "rules": [],
        "source": {
            "value": ""
        },
        "traits": {
            "custom": "",
            "rarity": {
                "value": "common"
            },
            "value": [
                "attack",
                "gunslinger"
            ]
        }
    },
    "effects": [],
    "flags": {},
    "img": "systems/pf2e/icons/default-icons/feats.webp",
    "name": "Blast Lock",
    "type": "feat"
}
