{
    "_id": "56HvICglqH7uR3AY",
    "data": {
        "actionCategory": {
            "value": ""
        },
        "actionType": {
            "value": "action"
        },
        "actions": {
            "value": 2
        },
        "description": {
            "value": "<p><strong>Frequency</strong> once per day</p>\n<hr />\n<p>The life-giving energy that flows in your blood revitalizes you. You recover [[/r {4d6}[healing]]]{4d6 Hit Points} and gain 10 temporary Hit Points for 1 minute. When you reach 15th level, you instead recover [[/r {6d6}[healing]]]{6d6 Hit Points} and gain 15 temporary HP.</p>"
        },
        "featType": {
            "value": "ancestry"
        },
        "level": {
            "value": 9
        },
        "location": "",
        "prerequisites": {
            "value": []
        },
        "rules": [],
        "source": {
            "value": "Pathfinder Lost Omens: Ancestry Guide"
        },
        "traits": {
            "custom": "",
            "rarity": {
                "value": "common"
            },
            "value": [
                "healing",
                "hobgoblin",
                "necromancy",
                "positive"
            ]
        }
    },
    "effects": [],
    "flags": {},
    "img": "systems/pf2e/icons/features/feats/feats.webp",
    "name": "Cantorian Rejuvenation",
    "type": "feat"
}
