{
    "_id": "Asb0UsQqeATsxqFJ",
    "data": {
        "actionCategory": {
            "value": ""
        },
        "actionType": {
            "value": "action"
        },
        "actions": {
            "value": 1
        },
        "description": {
            "value": "<p>With a mighty shout, you can stir an ally to attack.</p>\n<p>If your next action is to cast the @Compendium[pf2e.spells-srd.Inspire Courage]{Inspire Courage} composition cantrip, one ally who gains a status bonus from the spell can immediately use a reaction to make a melee @Compendium[pf2e.actionspf2e.Strike]{Strike}.</p>"
        },
        "featType": {
            "value": "class"
        },
        "level": {
            "value": 10
        },
        "prerequisites": {
            "value": [
                {
                    "value": "warrior muse"
                }
            ]
        },
        "rules": [],
        "source": {
            "value": "Pathfinder Advanced Player's Guide"
        },
        "traits": {
            "custom": "",
            "rarity": {
                "value": "common"
            },
            "value": [
                "auditory",
                "bard",
                "concentrate",
                "metamagic"
            ]
        }
    },
    "effects": [],
    "flags": {},
    "img": "systems/pf2e/icons/features/feats/feats.webp",
    "name": "Courageous Assault",
    "type": "feat"
}
