{
    "_id": "siegOEdEpevAJNFw",
    "data": {
        "actionCategory": {
            "value": ""
        },
        "actionType": {
            "value": "reaction"
        },
        "actions": {
            "value": null
        },
        "description": {
            "value": "<p><strong>Requirements</strong> You have a @Compendium[pf2e.spells-srd.Heal]{Heal} spell prepared and you aren't @Compendium[pf2e.conditionitems.Flat-Footed]{Flat-Footed} to the source of the damage.</p>\n<p><strong>Trigger</strong> Any ally within 30 feet that you can heal with your <em>heal</em> spell would take damage from an attack or effect from a source you can observe.</p>\n<hr />\n<p>You can manipulate the same energies that the <em>aeon orbs</em> use to sustain life. You cast <em>heal</em> on the triggering target. Instead of its normal effects, the <em>heal</em> spell reduces the triggering damage by an amount equal to the Hit Points a 1-action <em>heal</em> spell of that level would have recovered. As usual, if this reduces the damage to 0, it might also remove additional effects of the triggering attack, such as injury poisons.</p>"
        },
        "featType": {
            "value": "class"
        },
        "level": {
            "value": 20
        },
        "prerequisites": {
            "value": [
                {
                    "value": "healing font"
                }
            ]
        },
        "rules": [],
        "source": {
            "value": "Pathfinder #156: The Apocalypse Prophet"
        },
        "traits": {
            "custom": "",
            "rarity": {
                "value": "uncommon"
            },
            "selected": {
                "cleric": "Cleric"
            },
            "value": [
                "cleric"
            ]
        }
    },
    "effects": [],
    "flags": {},
    "img": "systems/pf2e/icons/features/feats/feats.webp",
    "name": "Denier of Destruction",
    "type": "feat"
}
