{
    "_id": "DunjA0vLZeozcNxu",
    "data": {
        "actionCategory": {
            "value": ""
        },
        "actionType": {
            "value": "passive"
        },
        "actions": {
            "value": null
        },
        "description": {
            "value": "<p>Drawing on the infernal power of your sinister forbears, you mislead your foes with magical deception. You can cast @Compendium[pf2e.spells-srd.Invisibility]{Invisibility} and @Compendium[pf2e.spells-srd.Misdirection]{Misdirection} each once per day as 2nd-level divine innate spells.</p>"
        },
        "featType": {
            "value": "ancestry"
        },
        "level": {
            "value": 9
        },
        "prerequisites": {
            "value": [
                {
                    "value": "Hellspawn"
                }
            ]
        },
        "rules": [],
        "source": {
            "value": "Pathfinder Advanced Player's Guide"
        },
        "traits": {
            "custom": "",
            "rarity": {
                "value": "common"
            },
            "value": [
                "tiefling"
            ]
        }
    },
    "effects": [],
    "flags": {},
    "img": "systems/pf2e/icons/features/feats/feats.webp",
    "name": "Devil Magic",
    "type": "feat"
}
