{
    "_id": "4EgueMqUm0ebKV4J",
    "data": {
        "actionCategory": {
            "value": ""
        },
        "actionType": {
            "value": "passive"
        },
        "actions": {
            "value": null
        },
        "description": {
            "value": "<p>Your draconic anatomy becomes especially pronounced. You increase the power of one of the following kobold heritages or feats you have.</p>\n<hr />\n<p><strong>Dracomancer</strong> Increase the number of times you can cast each of the granted 1st- and 2nd-level innate spells by 1.</p>\n<p><strong>Kobold Breath</strong> Creatures that critically fail their save against your Kobold Breath take 3d4 persistent damage of the type dealt by your draconic patron.</p>\n<p><strong>Strongjaw Kobold</strong> Your jaws unarmed attack gains the deadly d6 trait.</p>\n<p><strong>Venomtail Kobold</strong> You produce enough venom to use the Tail Toxin action twice per day.</p>"
        },
        "featType": {
            "value": "ancestry"
        },
        "level": {
            "value": 9
        },
        "location": "",
        "prerequisites": {
            "value": [
                {
                    "value": "strongjaw kobold heritage, venomtail kobold heritage, Dracomancer, or Kobold Breath"
                }
            ]
        },
        "rules": [],
        "source": {
            "value": "Pathfinder Lost Omens: Ancestry Guide"
        },
        "traits": {
            "custom": "",
            "rarity": {
                "value": "common"
            },
            "value": [
                "kobold"
            ]
        }
    },
    "effects": [],
    "flags": {},
    "img": "systems/pf2e/icons/features/feats/feats.webp",
    "name": "Dragonblood Paragon",
    "type": "feat"
}
