{
    "_id": "dDFQJem5K9Jzxgda",
    "data": {
        "actionCategory": {
            "value": ""
        },
        "actionType": {
            "value": "passive"
        },
        "actions": {
            "value": null
        },
        "description": {
            "value": "<p>You're particularly adept at crafting fireworks, allowing you to create much more powerful fireworks than you otherwise could. Your advanced alchemy level for fireworks increases to your level - 3.</p>"
        },
        "featType": {
            "value": "archetype"
        },
        "level": {
            "value": 6
        },
        "location": "",
        "prerequisites": {
            "value": [
                {
                    "value": "Firework Technician Dedication"
                },
                {
                    "value": "expert in Crafting"
                }
            ]
        },
        "rules": [],
        "source": {
            "value": ""
        },
        "traits": {
            "custom": "",
            "rarity": {
                "value": "common"
            },
            "value": [
                "archetype"
            ]
        }
    },
    "effects": [],
    "flags": {},
    "img": "systems/pf2e/icons/default-icons/feats.webp",
    "name": "Expert Fireworks Crafter",
    "type": "feat"
}
