{
    "_id": "gKoNWXem1ikEqE2d",
    "data": {
        "actionCategory": {
            "value": ""
        },
        "actionType": {
            "value": "passive"
        },
        "actions": {
            "value": null
        },
        "description": {
            "value": "<p>You've learned to speak with your familiar and other creatures like it.</p>\n<p>You can ask questions of, receive answers from, and use the Diplomacy skill with creatures of the same family of animals as your familiar.</p>\n<p>For example, if your familiar were a cat, you could gain the effects of<em> @Compendium[pf2e.spells-srd.Speak with Animals]{Speak with Animals}</em> for any felines (including leopards, lions, and tigers, among others).</p>\n<p>This ability doesn't make them more friendly than normal. If your familiar ever changes to a different creature, you can't use this ability for 1 week while you absorb your new familiar's language.</p>\n<p><strong>Special</strong> This feat has the trait corresponding to the tradition of spells you cast (arcane, divine, occult, or primal).</p>"
        },
        "featType": {
            "value": "class"
        },
        "level": {
            "value": 2
        },
        "prerequisites": {
            "value": [
                {
                    "value": "a familiar"
                }
            ]
        },
        "rules": [],
        "source": {
            "value": "Pathfinder Advanced Player's Guide"
        },
        "traits": {
            "custom": "",
            "rarity": {
                "value": "common"
            },
            "value": [
                "divination",
                "witch"
            ]
        }
    },
    "effects": [],
    "flags": {},
    "img": "systems/pf2e/icons/features/feats/feats.webp",
    "name": "Familiar's Language",
    "type": "feat"
}
