{
    "_id": "8rE5zLEVe4putosB",
    "data": {
        "actionCategory": {
            "value": ""
        },
        "actionType": {
            "value": "passive"
        },
        "actions": {
            "value": null
        },
        "description": {
            "value": "<p>You have learned some of the tricks the fey use to bend primal magic toward illusions and trickery.</p>\n<p>Add @Compendium[pf2e.spells-srd.Illusory Disguise]{Illusory Disguise}, @Compendium[pf2e.spells-srd.Illusory Object]{Illusory Object}, @Compendium[pf2e.spells-srd.Illusory Scene]{Illusory Scene}, and @Compendium[pf2e.spells-srd.Veil]{Veil} to your spell list as primal spells.</p>"
        },
        "featType": {
            "value": "class"
        },
        "level": {
            "value": 8
        },
        "location": "",
        "prerequisites": {
            "value": []
        },
        "rules": [],
        "source": {
            "value": "Pathfinder Core Rulebook"
        },
        "traits": {
            "custom": "",
            "rarity": {
                "value": "common"
            },
            "value": [
                "druid"
            ]
        }
    },
    "effects": [],
    "flags": {},
    "img": "systems/pf2e/icons/features/feats/feats.webp",
    "name": "Fey Caller",
    "type": "feat"
}
