{
    "_id": "Ano4tRq88V39eyPq",
    "data": {
        "actionCategory": {
            "value": ""
        },
        "actionType": {
            "value": "passive"
        },
        "actions": {
            "value": null
        },
        "description": {
            "value": "<p>Your dramatic appearances can frighten bystanders.</p>\n<p>When you make a Startling Appearance, you can also attempt to @Compendium[pf2e.actionspf2e.Demoralize]{Demoralize} each opponent within 10 feet to whom you were unnoticed before your @Compendium[pf2e.actionspf2e.Strike]{Strike}.</p>"
        },
        "featType": {
            "value": "archetype"
        },
        "level": {
            "value": 12
        },
        "prerequisites": {
            "value": [
                {
                    "value": "expert in Intimidation"
                },
                {
                    "value": "Startling Appearance"
                }
            ]
        },
        "rules": [],
        "source": {
            "value": "Pathfinder Advanced Player's Guide"
        },
        "traits": {
            "custom": "",
            "rarity": {
                "value": "common"
            },
            "value": [
                "archetype"
            ]
        }
    },
    "effects": [],
    "flags": {},
    "img": "systems/pf2e/icons/features/feats/feats.webp",
    "name": "Frightening Appearance",
    "type": "feat"
}
