{
    "_id": "MFqFvuiYDAoADcft",
    "data": {
        "actionCategory": {
            "value": ""
        },
        "actionType": {
            "value": "action"
        },
        "actions": {
            "value": 1
        },
        "description": {
            "value": "<p>You extend your body and prepare to attack foes outside your normal reach. Until your rage ends, all your melee weapons and unarmed attacks gain reach 10. This doesn't increase the reach of any weapon or unarmed attack that already has the reach trait, but it does combine with abilities that increase your reach due to increased size, such as Giant's Stature.</p>"
        },
        "featType": {
            "value": "class"
        },
        "level": {
            "value": 14
        },
        "prerequisites": {
            "value": [
                {
                    "value": "giant instinct"
                }
            ]
        },
        "rules": [],
        "source": {
            "value": "Pathfinder Core Rulebook"
        },
        "traits": {
            "custom": "",
            "rarity": {
                "value": "common"
            },
            "value": [
                "barbarian",
                "concentrate",
                "rage"
            ]
        }
    },
    "effects": [],
    "flags": {},
    "img": "systems/pf2e/icons/features/feats/feats.webp",
    "name": "Giant's Lunge",
    "type": "feat"
}
