{
    "_id": "vDJRIKS27md3LudA",
    "data": {
        "actionCategory": {
            "value": ""
        },
        "actionType": {
            "value": "passive"
        },
        "actions": {
            "value": null
        },
        "description": {
            "value": "<p>Even a single missile can throw off your enemy's balance, and more powerful attacks leave it flustered for longer.</p>\n<p>If you hit your hunted prey with a ranged weapon, it's @Compendium[pf2e.conditionitems.Flat-Footed]{Flat-Footed} until the start of your next turn. If you critically hit your prey or hit it twice on the same turn with a ranged weapon, it's flat-footed until the end of your next turn instead.</p>"
        },
        "featType": {
            "value": "class"
        },
        "level": {
            "value": 16
        },
        "location": "",
        "prerequisites": {
            "value": [
                {
                    "value": "Distracting Shot"
                }
            ]
        },
        "rules": [],
        "source": {
            "value": "Pathfinder Core Rulebook"
        },
        "traits": {
            "custom": "",
            "rarity": {
                "value": "common"
            },
            "value": [
                "ranger"
            ]
        }
    },
    "effects": [],
    "flags": {},
    "img": "systems/pf2e/icons/features/feats/feats.webp",
    "name": "Greater Distracting Shot",
    "type": "feat"
}
