{
    "_id": "HgBksiMTUibPK36M",
    "data": {
        "actionCategory": {
            "value": ""
        },
        "actionType": {
            "value": "passive"
        },
        "actions": {
            "value": null
        },
        "description": {
            "value": "<p>Your knowledge of halcyon magic increases. You gain two common 2nd-level halcyon spells and two 3rd-level halcyon spells. You also gain a 2nd-level halcyon spell slot and a 3rd-level halcyon spell slot. These and all future halcyon spell slots work like the 1st-level halcyon spell slot you gained from Halcyon Speaker Dedication.</p>"
        },
        "featType": {
            "value": "archetype"
        },
        "level": {
            "value": 10
        },
        "location": "",
        "prerequisites": {
            "value": [
                {
                    "value": "Halcyon Speaker Dedication"
                }
            ]
        },
        "rules": [],
        "source": {
            "value": "Pathfinder Lost Omens: Character Guide"
        },
        "traits": {
            "custom": "",
            "rarity": {
                "value": "common"
            },
            "value": [
                "archetype"
            ]
        }
    },
    "effects": [],
    "flags": {},
    "img": "systems/pf2e/icons/features/feats/feats.webp",
    "name": "Halcyon Spellcasting Initiate",
    "type": "feat"
}
