{
    "_id": "47ZB8mYBtBt1C7zh",
    "data": {
        "actionCategory": {
            "value": ""
        },
        "actionType": {
            "value": "reaction"
        },
        "actions": {
            "value": null
        },
        "description": {
            "value": "<p><strong>Frequency</strong> once per hour</p>\n<p><strong>Trigger</strong> A creature you can see damages you with a melee Strike.</p>\n<hr />\n<p>You respond with a startled look, dramatic pratfall, or theatrical arm-flailing that stymies your attacker. The attacker must succeed at a Will saving throw against your class DC or spell DC, whichever is higher, or become @Compendium[pf2e.conditionitems.Stupefied]{Stupefied 1} for 1 round (@Compendium[pf2e.conditionitems.Stupefied]{Stupefied 2} on a critical failure).</p>"
        },
        "featType": {
            "value": "ancestry"
        },
        "level": {
            "value": 5
        },
        "location": "",
        "prerequisites": {
            "value": []
        },
        "rules": [],
        "source": {
            "value": ""
        },
        "traits": {
            "custom": "",
            "rarity": {
                "value": "common"
            },
            "value": [
                "mental",
                "poppet"
            ]
        }
    },
    "effects": [],
    "flags": {},
    "img": "systems/pf2e/icons/default-icons/feats.webp",
    "name": "Histrionic Injury",
    "type": "feat"
}
