{
    "_id": "SrSYEHqOLXWuj65e",
    "data": {
        "actionCategory": {
            "value": ""
        },
        "actionType": {
            "value": "action"
        },
        "actions": {
            "value": 3
        },
        "description": {
            "value": "<p>You can jury-rig your weapons to perform in unexpected ways. When you use this ability, add one of the following weapon traits to a melee weapon you wield: deadly d6, disarm, nonlethal, shove, trip, versatile B, versatile P, or versatile S. You cannot add a trait that the weapon already has. The weapon retains this trait until you a successfully hit and deal damage with the weapon. The weapon retains this trait only while you wield it, and you can have only one weapon modified in this way at any time.</p>\n<p>If you have expert proficiency in Crafting, you can use this feat as a 2-action activity. If you have legendary proficiency in Crafting, you can apply two weapon traits from the list when using this feat.</p>"
        },
        "featType": {
            "value": "ancestry"
        },
        "level": {
            "value": 1
        },
        "prerequisites": {
            "value": [
                {
                    "value": "trained in Crafting"
                }
            ]
        },
        "rules": [],
        "source": {
            "value": "Pathfinder Lost Omens: Character Guide"
        },
        "traits": {
            "custom": "",
            "rarity": {
                "value": "common"
            },
            "value": [
                "gnome"
            ]
        }
    },
    "effects": [],
    "flags": {},
    "img": "systems/pf2e/icons/features/feats/feats.webp",
    "name": "Inventive Offensive",
    "type": "feat"
}
