{
    "_id": "80DU0IvIzOIBGuUa",
    "data": {
        "actionCategory": {
            "value": ""
        },
        "actionType": {
            "value": "passive"
        },
        "actions": {
            "value": null
        },
        "description": {
            "value": "<p>During your daily preparations, you can gain the assistance of an allied prepared spellcaster to prepare one spell for the day. The spell can be up to 3rd level. Your ally must be able to prepare and cast it, and the spell must have a Targets entry or an area. Your ally loses a spell slot of the corresponding spell level, and you gain the ability to cast the prepared spell once that day.</p>\n<p>When you @Compendium[pf2e.actionspf2e.Cast a Spell]{Cast the Spell}, use your class DC for any saving throws required by the spell, and your class DC - 10 as a spell attack roll modifier.</p>"
        },
        "featType": {
            "value": "class"
        },
        "level": {
            "value": 8
        },
        "prerequisites": {
            "value": [
                {
                    "value": "trained in Arcana, Nature, Occultism, or Religion"
                }
            ]
        },
        "rules": [],
        "source": {
            "value": "Pathfinder Advanced Player's Guide"
        },
        "traits": {
            "custom": "",
            "rarity": {
                "value": "common"
            },
            "value": [
                "rogue"
            ]
        }
    },
    "effects": [],
    "flags": {},
    "img": "systems/pf2e/icons/features/feats/feats.webp",
    "name": "Loaner Spell",
    "type": "feat"
}
