{
    "_id": "ByqxxJkJiNFtjghh",
    "data": {
        "actionCategory": {
            "value": ""
        },
        "actionType": {
            "value": "reaction"
        },
        "actions": {
            "value": null
        },
        "description": {
            "value": "<p><strong>Trigger</strong> You succeed at a Demoralize check.</p>\n<hr />\n<p><strong>Requirements</strong> You're wearing your <em>warmask</em>.Your mask has grown into a manifestation of your pain, which you can release. The creature you successfully Demoralized takes [[/r {2d6}[mental] #Mask of Pain]]{2d6 mental damage}, or [[/r {4d6}[mental] #Mask of Pain]]{4d6 mental damage} if you're legendary in Intimidation. The target is then temporarily immune to additional damage from Mask of Pain for 24 hours.</p>"
        },
        "featType": {
            "value": "ancestry"
        },
        "level": {
            "value": 9
        },
        "location": "",
        "prerequisites": {
            "value": [
                {
                    "value": "expert in Intimidation"
                },
                {
                    "value": "Orc Warmask"
                }
            ]
        },
        "rules": [
            {
                "key": "Note",
                "outcome": [
                    "criticalSuccess",
                    "success"
                ],
                "predicate": {
                    "all": [
                        "action:demoralize"
                    ],
                    "not": [
                        "proficiency:legendary"
                    ]
                },
                "selector": "intimidation",
                "text": "<p class='compact-text'><strong>{item|name}</strong> The creature you successfully Demoralized takes [[/r {2d6}[mental] #Mask of Pain]]{2d6 mental damage}, and is then temporarily immune to additional damage from Mask of Pain for 24 hours."
            },
            {
                "key": "Note",
                "outcome": [
                    "criticalSuccess",
                    "success"
                ],
                "predicate": {
                    "all": [
                        "proficiency:legendary"
                    ]
                },
                "selector": "intimidation",
                "text": "<p class='compact-text'><strong>{item|name}</strong> The creature you successfully Demoralized takes [[/r {4d6}[mental] #Mask of Pain]]{4d6 mental damage}, and is then temporarily immune to additional damage from Mask of Pain for 24 hours."
            }
        ],
        "source": {
            "value": "Pathfinder Lost Omens: Ancestry Guide"
        },
        "traits": {
            "custom": "",
            "rarity": {
                "value": "common"
            },
            "value": [
                "orc"
            ]
        }
    },
    "effects": [],
    "flags": {},
    "img": "systems/pf2e/icons/features/feats/feats.webp",
    "name": "Mask Of Pain",
    "type": "feat"
}
