{
    "_id": "d8AjCqU30z7IOpos",
    "data": {
        "actionCategory": {
            "value": ""
        },
        "actionType": {
            "value": "passive"
        },
        "actions": {
            "value": null
        },
        "description": {
            "value": "<p>Your study of the Beast of Gluttondark has taught you how to make do in the most trying of circumstances rather than succumb to weakness. As long as your current Hit Points are less than half your maximum Hit Points, you gain a +1 circumstance bonus to Survival and Stealth checks. If your current Hit Points are less than a quarter your maximum Hit Points, the circumstance bonus is +2 instead.</p>"
        },
        "featType": {
            "value": "skill"
        },
        "level": {
            "value": 1
        },
        "prerequisites": {
            "value": [
                {
                    "value": " trained in Zevgavizeb Lore"
                }
            ]
        },
        "rules": [],
        "source": {
            "value": "Pathfinder #153: Life's Long Shadow"
        },
        "traits": {
            "custom": "",
            "rarity": {
                "value": "common"
            },
            "value": [
                "general",
                "skill"
            ]
        }
    },
    "effects": [],
    "flags": {},
    "img": "systems/pf2e/icons/features/feats/feats.webp",
    "name": "Ravening's Desperation",
    "type": "feat"
}
