{
    "_id": "qMa2fIP2nqrFzHrq",
    "data": {
        "actionCategory": {
            "value": ""
        },
        "actionType": {
            "value": "passive"
        },
        "actions": {
            "value": null
        },
        "description": {
            "value": "<p>You are a highly skilled scout, capable of providing your allies a timely warning of any danger. You gain the @Compendium[pf2e.feats-srd.Scout's Warning]{Scout's Warning} ranger feat.</p>\n<p>When you're using the @Compendium[pf2e.actionspf2e.Scout]{Scout} exploration activity, you grant your allies a +2 circumstance bonus to their initiative rolls instead of a +1 circumstance bonus.</p>\n<p><strong>Special</strong> You can't select another dedication feat until you have gained two other feats from the scout archetype.</p>"
        },
        "featType": {
            "value": "archetype"
        },
        "level": {
            "value": 2
        },
        "prerequisites": {
            "value": [
                {
                    "value": "trained in Stealth and Survival"
                }
            ]
        },
        "rules": [],
        "source": {
            "value": "Pathfinder Advanced Player's Guide"
        },
        "traits": {
            "custom": "",
            "rarity": {
                "value": "common"
            },
            "value": [
                "archetype",
                "dedication"
            ]
        }
    },
    "effects": [],
    "flags": {},
    "img": "systems/pf2e/icons/features/feats/feats.webp",
    "name": "Scout Dedication",
    "type": "feat"
}
