{
    "_id": "CcQISNjNdD0Fsj9n",
    "data": {
        "actionCategory": {
            "value": ""
        },
        "actionType": {
            "value": "passive"
        },
        "actions": {
            "value": null
        },
        "description": {
            "value": "<p>You've sworn an oath to put the undead to rest. Add the following tenet to your champion's code after the other tenets: \"You must end the existence of undead you encounter as long as you have a reasonable chance of success; in the unlikely event you find a good undead, you can try to work out a more peaceful way to help it recover from its undead state rather than destroying it in combat, such as helping it complete its unfinished business and find peace.\"</p>\n<p>Your @Compendium[pf2e.actionspf2e.Retributive Strike]{Retributive Strike} gains a +4 circumstance bonus to damage against an undead, or +6 if you have master proficiency with the weapon you used.</p>\n<p>You don't consider undead to be legitimate authorities, even in nations ruled by undead.</p>"
        },
        "featType": {
            "value": "class"
        },
        "level": {
            "value": 2
        },
        "location": "",
        "prerequisites": {
            "value": [
                {
                    "value": "tenets of good"
                },
                {
                    "value": "paladin cause"
                }
            ]
        },
        "rules": [
            {
                "key": "ToggleProperty",
                "label": "Retributive Strike against an undead",
                "property": "flags.pf2e.rollOptions.damage-roll.shining-oath"
            },
            {
                "key": "FlatModifier",
                "label": "Shining Oath",
                "name": "shining-not-master",
                "predicate": {
                    "all": [
                        "shining-oath"
                    ],
                    "not": [
                        "proficiency:master",
                        "proficiency:legendary"
                    ]
                },
                "selector": "damage",
                "value": 4
            },
            {
                "key": "FlatModifier",
                "label": "Shining Oath",
                "name": "shining-master",
                "predicate": {
                    "all": [
                        "shining-oath"
                    ],
                    "any": [
                        "proficiency:master",
                        "proficiency:legendary"
                    ]
                },
                "selector": "damage",
                "value": 6
            }
        ],
        "source": {
            "value": "Pathfinder Core Rulebook"
        },
        "traits": {
            "custom": "",
            "rarity": {
                "value": "common"
            },
            "value": [
                "champion",
                "oath"
            ]
        }
    },
    "effects": [],
    "flags": {},
    "img": "systems/pf2e/icons/features/feats/feats.webp",
    "name": "Shining Oath (Paladin)",
    "type": "feat"
}
