{
    "_id": "jsXDbQAAH3yMchPU",
    "data": {
        "actionCategory": {
            "value": ""
        },
        "actionType": {
            "value": "reaction"
        },
        "actions": {
            "value": null
        },
        "description": {
            "value": "<p><strong>Trigger</strong> Another creature within 60 feet uses a linguistic effect in a language you understand.</p>\n<hr />\n<p>You interpret a creature's words, repeating their message in a different language that you know. If the triggering effect's targets speak either the original language or the one you translated into, they are affected.</p>"
        },
        "featType": {
            "value": "archetype"
        },
        "level": {
            "value": 4
        },
        "prerequisites": {
            "value": [
                {
                    "value": "Linguist Dedication"
                }
            ]
        },
        "rules": [],
        "source": {
            "value": "Pathfinder Advanced Player's Guide"
        },
        "traits": {
            "custom": "",
            "rarity": {
                "value": "common"
            },
            "value": [
                "archetype",
                "auditory",
                "linguistic"
            ]
        }
    },
    "effects": [],
    "flags": {},
    "img": "systems/pf2e/icons/features/feats/feats.webp",
    "name": "Spot Translate",
    "type": "feat"
}
