{
    "_id": "d1FTY5ai9KjpkX59",
    "data": {
        "actionCategory": {
            "value": ""
        },
        "actionType": {
            "value": "passive"
        },
        "actions": {
            "value": null
        },
        "description": {
            "value": "<p>Your magic has crystallized into a spherical stone. You gain a familiar, except it's a star orb: a Tiny stone of light Bulk. The familiar has no Speeds and must select a Speed familiar ability before it can move, animating in a way appropriate to the chosen Speed and using the statistics of a normal familiar for that day; when it‘s an immobile stone, it can't select any familiar or master abilities that require it to move. It always has the innate surge master ability.</p>"
        },
        "featType": {
            "value": "ancestry"
        },
        "level": {
            "value": 1
        },
        "location": "",
        "prerequisites": {
            "value": []
        },
        "rules": [
            {
                "key": "ActiveEffectLike",
                "mode": "upgrade",
                "path": "data.attributes.familiarAbilities.value",
                "priority": 9,
                "value": 2
            }
        ],
        "source": {
            "value": "Pathfinder Lost Omens: Ancestry Guide"
        },
        "traits": {
            "custom": "",
            "rarity": {
                "value": "common"
            },
            "value": [
                "kitsune"
            ]
        }
    },
    "effects": [],
    "flags": {},
    "img": "systems/pf2e/icons/features/feats/feats.webp",
    "name": "Star Orb",
    "type": "feat"
}
