{
    "_id": "2pglnWX8q5p3XcqR",
    "data": {
        "actionCategory": {
            "value": "interaction"
        },
        "actionType": {
            "value": "passive"
        },
        "actions": {
            "value": null
        },
        "description": {
            "value": "<p>You can expertly control your living hair and use it to perform various tasks. You can perform simple Interact actions with your hair such as opening an unlocked door or picking up objects. Your hair can't perform actions that require fingers or significant manual dexterity, including any action that would require a check to accomplish. Your hair can hold items of up to 1 Bulk, but can't Activate or attack with any items it's holding.</p>"
        },
        "featType": {
            "value": "class"
        },
        "level": {
            "value": 4
        },
        "location": "",
        "prerequisites": {
            "value": [
                {
                    "value": "Living Hair"
                }
            ]
        },
        "rules": [],
        "source": {
            "value": "Pathfinder #166: Despair on Danger Island"
        },
        "traits": {
            "custom": "",
            "rarity": {
                "value": "uncommon"
            },
            "value": [
                "witch"
            ]
        }
    },
    "effects": [],
    "flags": {},
    "img": "systems/pf2e/icons/default-icons/feats.webp",
    "name": "Syu Tak-nwa's Skillful Tresses",
    "type": "feat"
}
