{
    "_id": "oItG5dqlPEi8wNnR",
    "data": {
        "actionCategory": {
            "value": ""
        },
        "actionType": {
            "value": "passive"
        },
        "actions": {
            "value": null
        },
        "description": {
            "value": "<p>You can transform yourself or the bodies of others to express your displeasure. Once per day, you can cast either @Compendium[pf2e.spells-srd.Aerial Form]{Aerial Form} or @Compendium[pf2e.spells-srd.Baleful Polymorph]{Baleful Polymorph} as a 7th-level primal innate spell. You must take the form of a bird when using this aerial form.</p>"
        },
        "featType": {
            "value": "ancestry"
        },
        "level": {
            "value": 17
        },
        "location": "",
        "prerequisites": {
            "value": []
        },
        "rules": [],
        "source": {
            "value": "Pathfinder Lost Omens: Ancestry Guide"
        },
        "traits": {
            "custom": "",
            "rarity": {
                "value": "common"
            },
            "value": [
                "tengu"
            ]
        }
    },
    "effects": [],
    "flags": {},
    "img": "systems/pf2e/icons/features/feats/feats.webp",
    "name": "Trickster Tengu",
    "type": "feat"
}
