{
    "_id": "UyyrFtPWOo0qvXOv",
    "data": {
        "actionCategory": {
            "value": ""
        },
        "actionType": {
            "value": "passive"
        },
        "actions": {
            "value": null
        },
        "description": {
            "value": "<p><strong>Archetype</strong> @Compendium[pf2e.archetypes.Zephyr Guard]{Zephyr Guard}</p>\n<hr />\n<p>As a Zephyr Guard, you're always vigilant against crime and threats to the city's safety. You gain a +1 circumstance bonus to Perception checks against attempts to Palm an Object, Steal, or Conceal an Object (including you're Seeking concealed objects). You become trained in Society and Katapesh Lore; if you were already trained, you become an expert instead.</p>\n<p><strong>Special</strong> You can't select another dedication feat until you have gained two other feats from the Zephyr Guard archetype.</p>"
        },
        "featType": {
            "value": "archetype"
        },
        "level": {
            "value": 2
        },
        "location": "",
        "prerequisites": {
            "value": []
        },
        "rules": [
            {
                "key": "FlatModifier",
                "label": "to notice theft (Zephyr Guard)",
                "predicate": {
                    "any": [
                        "action:steal",
                        "action:conceal-an-object",
                        "action:palm-an-object"
                    ]
                },
                "selector": "perception",
                "type": "circumstance",
                "value": 2
            },
            {
                "key": "ActiveEffectLike",
                "mode": "upgrade",
                "path": "data.skills.soc.rank",
                "value": 1
            }
        ],
        "source": {
            "value": "Pathfinder #149: Against the Scarlet Triad"
        },
        "traits": {
            "custom": "",
            "rarity": {
                "value": "uncommon"
            },
            "value": [
                "archetype",
                "dedication"
            ]
        }
    },
    "effects": [],
    "flags": {},
    "img": "systems/pf2e/icons/features/feats/feats.webp",
    "name": "Zephyr Guard Dedication",
    "type": "feat"
}
