{
    "_id": "XFd7rnb9cchNw0WN",
    "data": {
        "actionCategory": {
            "value": ""
        },
        "actionType": {
            "value": "passive"
        },
        "actions": {
            "value": null
        },
        "description": {
            "value": "<p><strong>Minor Curse</strong>: Norgorber allows thieves to get the better of you.</p>\n<p>Whenever you Earn Income, you earn money as if the task were 2 levels lower due to theft, loss, or bad fortune.</p>"
        },
        "featType": {
            "value": "curse"
        },
        "level": {
            "value": 0
        },
        "prerequisites": {
            "value": []
        },
        "rules": [],
        "source": {
            "value": ""
        },
        "traits": {
            "custom": "",
            "rarity": {
                "value": "common"
            },
            "selected": {},
            "value": []
        }
    },
    "effects": [],
    "flags": {},
    "img": "systems/pf2e/icons/deity/Norgorber.webp",
    "name": "Norgorber - Minor Curse",
    "type": "feat"
}
