{
    "_id": "TAAWbJgfESltn2we",
    "data": {
        "description": {
            "value": "<p>Granted by @Compendium[pf2e.spells-srd.Primal Summons]{Primal Summons} when you select water.</p>\n<p>The creature gains a swim Speed of 60 feet.</p>"
        },
        "duration": {
            "expiry": "turn-start",
            "sustained": false,
            "unit": "unlimited",
            "value": -1
        },
        "level": {
            "value": 10
        },
        "rules": [
            {
                "key": "BaseSpeed",
                "selector": "swim",
                "value": 60
            }
        ],
        "source": {
            "value": ""
        },
        "start": {
            "initiative": null,
            "value": 0
        },
        "target": null,
        "tokenIcon": {
            "show": true
        },
        "traits": {
            "custom": "",
            "rarity": {
                "value": "common"
            },
            "value": []
        }
    },
    "effects": [],
    "flags": {},
    "img": "systems/pf2e/icons/spells/primal-summons.webp",
    "name": "Spell Effect: Primal Summons (Water)",
    "type": "effect"
}
