{
    "_id": "ndj0TpLxyzbyzcm4",
    "data": {
        "description": {
            "value": "<p>The target's legs necrotize, as well as any other limbs associated with forms of movement, making it harder for the creature to move. The target takes a -10-foot status penalty to its Speeds.</p>"
        },
        "duration": {
            "expiry": "turn-start",
            "sustained": false,
            "unit": "rounds",
            "value": 1
        },
        "level": {
            "value": 1
        },
        "rules": [
            {
                "key": "FlatModifier",
                "label": "Necrotize (Legs)",
                "selector": "speed",
                "type": "status",
                "value": -10
            }
        ],
        "source": {
            "value": ""
        },
        "start": {
            "initiative": null,
            "value": 0
        },
        "target": null,
        "tokenIcon": {
            "show": true
        },
        "traits": {
            "custom": "",
            "rarity": {
                "value": "common"
            },
            "value": []
        }
    },
    "effects": [],
    "flags": {},
    "img": "systems/pf2e/icons/spells/necrotize.webp",
    "name": "Spell Effect: Necrotize (Legs)",
    "type": "effect"
}
