{
    "_id": "sDN9b4bjCGH2nQnG",
    "data": {
        "description": {
            "value": "<p>The target isn't @Compendium[pf2e.conditionitems.Flat-Footed]{Flat-Footed} when Climbing, and when it rolls a success on an Acrobatics check to Balance on rubble, it gets a critical success instead.</p>"
        },
        "duration": {
            "expiry": "turn-start",
            "sustained": false,
            "unit": "hours",
            "value": 1
        },
        "level": {
            "value": 2
        },
        "rules": [
            {
                "adjustment": {
                    "success": "one-degree-better"
                },
                "key": "AdjustDegreeOfSuccess",
                "predicate": {
                    "all": [
                        "action:balance"
                    ],
                    "any": [
                        "terrain:rubble"
                    ]
                },
                "selector": "acrobatics",
                "type": "skill"
            }
        ],
        "source": {
            "value": ""
        },
        "start": {
            "initiative": null,
            "value": 0
        },
        "target": null,
        "tokenIcon": {
            "show": true
        },
        "traits": {
            "custom": "",
            "rarity": {
                "value": "common"
            },
            "value": []
        }
    },
    "effects": [],
    "flags": {},
    "img": "systems/pf2e/icons/spells/rapid-adaptation.webp",
    "name": "Spell Effect: Rapid Adaptation (Mountain)",
    "type": "effect"
}
