{
    "_id": "eotqxEWIgaK7nMpD",
    "data": {
        "description": {
            "value": "<p>You gain a +2 status bonus to saves against death and fear effects for the next year.</p>"
        },
        "duration": {
            "expiry": "turn-end",
            "sustained": false,
            "unit": "days",
            "value": 365
        },
        "level": {
            "value": 18
        },
        "rules": [
            {
                "key": "FlatModifier",
                "label": "Blunt the Final Blade (Critical Success Boon)",
                "predicate": {
                    "any": [
                        "death",
                        "fear"
                    ]
                },
                "selector": "saving-throw",
                "type": "status",
                "value": 2
            }
        ],
        "source": {
            "value": ""
        },
        "start": {
            "initiative": null,
            "value": 0
        },
        "target": null,
        "tokenIcon": {
            "show": false
        },
        "traits": {
            "custom": "",
            "rarity": {
                "value": "common"
            },
            "value": []
        }
    },
    "effects": [],
    "flags": {},
    "img": "systems/pf2e/icons/default-icons/effect.svg",
    "name": "Spell Effect: Blunt the Final Blade (Critical Success)",
    "type": "effect"
}
