{
    "_id": "dWbg2gACxMkSnZag",
    "data": {
        "description": {
            "value": "<p>Granted by @Compendium[pf2e.spells-srd.Protective Ward]{Protective ward}</p>\n<p>You emanate a shimmering aura of protective magic. You and any allies in the area gain a +1 status bonus to AC. Each time you @Compendium[pf2e.actionspf2e.Sustain a Spell]{Sustain the Spell}, the emanation's radius increases by 5 feet, to a maximum of 30 feet.</p>"
        },
        "duration": {
            "expiry": "turn-start",
            "sustained": true,
            "unit": "minutes",
            "value": 1
        },
        "level": {
            "value": 1
        },
        "rules": [
            {
                "key": "FlatModifier",
                "label": "Protective Ward",
                "selector": "ac",
                "type": "status",
                "value": {
                    "brackets": [
                        {
                            "value": 1
                        }
                    ]
                }
            }
        ],
        "source": {
            "value": ""
        },
        "start": {
            "value": 0
        },
        "target": null,
        "tokenIcon": {
            "show": true
        },
        "traits": {
            "custom": "",
            "rarity": {
                "value": "uncommon"
            },
            "value": [
                "abjuration",
                "wizard"
            ]
        }
    },
    "effects": [],
    "flags": {},
    "img": "systems/pf2e/icons/spells/protective-ward.webp",
    "name": "Spell Effect: Protective Ward",
    "type": "effect"
}
