{
    "_id": "Tu7LIRelQsiOuo1l",
    "author": "j8qxwRz5RJ4kkzp9",
    "command": "game.pf2e.actions.craft({ event: event });",
    "flags": {},
    "img": "icons/svg/dice-target.svg",
    "name": "Craft: Crafting",
    "permission": {
        "default": 1
    },
    "scope": "global",
    "type": "script"
}
