{
    "_id": "uGY2yddm8mZx8Yo2",
    "data": {
        "actionCategory": {
            "value": ""
        },
        "actionType": {
            "value": "passive"
        },
        "actions": {
            "value": null
        },
        "description": {
            "value": "<p>The fury of a wild predator fills you when you Rage, granting you ferocious unarmed attacks. Cultures that revere vicious animals (such as apes or bears) give rise to barbarians with this instinct. You might also be at war with an uncontrollable, animalistic side of your personality, or you might be a descendant of a werewolf or another werecreature.</p>\n<ul>\n<li><strong>Bear Instinct</strong></li>\n<ul>\n<li><strong>Jaws</strong> (Unarmed) 1d10 Piercing</li>\n<li><strong>Claw</strong> (Agile, Unarmed) 1d6 Slashing</li>\n</ul>\n</ul>\n<h2 class=\"title\">Anathema</h2>\n<p>Flagrantly disrespecting an animal of your chosen kind is anathema to your instinct, as is using weapons while raging.</p>\n<h2 class=\"title\">Bestial Rage (Instinct Ability)</h2>\n<p>When you Rage, you gain your chosen animal's unarmed attack (or attacks). The specific attack gained, the damage it deals, and its traits are listed on Table 3–3: Animal Instincts. These attacks are in the brawling group. Your Rage action gains the morph, primal, and transmutation traits.</p>\n<h2 class=\"title\">Specialization Ability</h2>\n<p>Increase the damage die size for the unarmed attacks granted by your chosen animal by one step, and increase the additional damage from Rage from 2 to 5 for your chosen animal's unarmed attacks. The frog's tongue attack and deer's antler attack gain reach 10 feet. If you have greater weapon specialization, increase the damage from Rage from 5 to 12 for your chosen animal's unarmed attacks.</p>\n<h2 class=\"title\">Raging Resistance</h2>\n<p>You resist piercing and slashing damage.</p>"
        },
        "featType": {
            "value": "classfeature"
        },
        "identified": {
            "value": true
        },
        "level": {
            "value": 1
        },
        "location": "",
        "prerequisites": {
            "value": []
        },
        "rules": [
            {
                "key": "FlatModifier",
                "label": "Rage",
                "predicate": {
                    "all": [
                        "rage"
                    ],
                    "not": [
                        "barbarian-dedication"
                    ]
                },
                "selector": "ac",
                "value": -1
            },
            {
                "key": "FlatModifier",
                "label": "Rage",
                "name": "rage",
                "predicate": {
                    "all": [
                        "rage",
                        "animal-instinct"
                    ],
                    "not": [
                        "agile",
                        "ranged",
                        "barbarian-dedication"
                    ]
                },
                "selector": "damage",
                "value": {
                    "brackets": [
                        {
                            "end": 6,
                            "value": 2
                        },
                        {
                            "end": 14,
                            "start": 7,
                            "value": 5
                        },
                        {
                            "start": 15,
                            "value": 12
                        }
                    ]
                }
            },
            {
                "key": "FlatModifier",
                "label": "Rage",
                "name": "rage-agile",
                "predicate": {
                    "all": [
                        "rage",
                        "agile",
                        "animal-instinct"
                    ],
                    "not": [
                        "ranged",
                        "barbarian-dedication"
                    ]
                },
                "selector": "damage",
                "value": {
                    "brackets": [
                        {
                            "end": 6,
                            "value": 1
                        },
                        {
                            "end": 14,
                            "start": 7,
                            "value": 2
                        },
                        {
                            "start": 15,
                            "value": 6
                        }
                    ]
                }
            },
            {
                "category": "unarmed",
                "damage": {
                    "base": {
                        "damageType": "piercing",
                        "dice": 1,
                        "die": "d10"
                    }
                },
                "group": "brawling",
                "key": "Strike",
                "label": "Bear Jaws",
                "options": [
                    "animal-instinct"
                ],
                "range": "melee",
                "traits": [
                    "unarmed"
                ]
            },
            {
                "category": "unarmed",
                "damage": {
                    "base": {
                        "damageType": "slashing",
                        "dice": 1,
                        "die": "d6"
                    }
                },
                "group": "brawling",
                "key": "Strike",
                "label": "Bear Claw",
                "options": [
                    "animal-instinct"
                ],
                "range": "melee",
                "traits": [
                    "agile",
                    "unarmed"
                ]
            },
            {
                "key": "DamageDice",
                "predicate": {
                    "not": [
                        "barbarian-dedication"
                    ]
                },
                "selector": "bear-jaws-damage",
                "value": {
                    "brackets": [
                        {
                            "start": 7,
                            "value": {
                                "override": {
                                    "dieSize": "d12"
                                }
                            }
                        }
                    ]
                }
            },
            {
                "key": "DamageDice",
                "predicate": {
                    "not": [
                        "barbarian-dedication"
                    ]
                },
                "selector": "bear-claw-damage",
                "value": {
                    "brackets": [
                        {
                            "start": 7,
                            "value": {
                                "override": {
                                    "dieSize": "d8"
                                }
                            }
                        }
                    ]
                }
            },
            {
                "key": "FlatModifier",
                "label": "Rage",
                "name": "dedication-instinct-rage",
                "predicate": {
                    "all": [
                        "rage",
                        "barbarian-dedication",
                        "instinct-ability"
                    ],
                    "not": [
                        "agile",
                        "ranged"
                    ]
                },
                "selector": "damage",
                "value": 2
            },
            {
                "key": "FlatModifier",
                "label": "Rage",
                "name": "dedication-instinct-rage-agile",
                "predicate": {
                    "all": [
                        "rage",
                        "barbarian-dedication",
                        "instinct-ability",
                        "agile"
                    ],
                    "not": [
                        "ranged"
                    ]
                },
                "selector": "damage",
                "value": 1
            },
            {
                "key": "FlatModifier",
                "label": "Rage",
                "name": "non-animal-rage",
                "predicate": {
                    "all": [
                        "rage"
                    ],
                    "not": [
                        "agile",
                        "ranged",
                        "animal-instinct",
                        "barbarian-dedication"
                    ]
                },
                "selector": "damage",
                "value": 2
            },
            {
                "key": "FlatModifier",
                "label": "Rage",
                "name": "non-animal-rage-agile",
                "predicate": {
                    "all": [
                        "rage",
                        "agile"
                    ],
                    "not": [
                        "ranged",
                        "animal-instinct",
                        "barbarian-dedication"
                    ]
                },
                "selector": "damage",
                "value": 1
            }
        ],
        "source": {
            "value": ""
        },
        "traits": {
            "custom": "",
            "rarity": {
                "value": "common"
            },
            "value": [
                "barbarian"
            ]
        }
    },
    "effects": [],
    "flags": {},
    "img": "systems/pf2e/icons/features/classes/animal-instinct.webp",
    "name": "Bear Animal Instinct",
    "type": "feat"
}
