{
    "_id": "tZBb3Kh4nJcNoUFI",
    "data": {
        "actionCategory": {
            "value": ""
        },
        "actionType": {
            "value": "passive"
        },
        "actions": {
            "value": null
        },
        "description": {
            "value": "<p>Knowledge and information come freely to you. You might use this lore to gain power or perhaps to understand the divine mysteries of the multiverse. You might have a conduit to the fabled Akashic Record, maintain a subtle telepathic connection to the collective subconscious of all living creatures, or follow in the footsteps of deities such as Abadar, Irori, Nethys, Irori's scholarly nephew Gruhastha, the fey triune goddess of fate Magdh, or the lawful aeon god-figure known as the Monad.</p>\n<p><strong>Mystery Benefit</strong></p>\n<p>You hold more mystical knowledge within you than most. You have one additional spell in your repertoire of each level you can cast.</p>\n<p><strong>Trained Skill</strong> Occultism and one Lore skill of your choice</p>\n<p><strong>Granted Cantrip</strong> @Compendium[pf2e.spells-srd.Read Aura]{Read Aura}</p>\n<p><strong>Revelation Spells</strong></p>\n<ul>\n<li>Initial @Compendium[pf2e.spells-srd.Brain Drain]{Brain Drain};</li>\n<li>Advanced @Compendium[pf2e.spells-srd.Access Lore]{Access Lore};</li>\n<li>Greater @Compendium[pf2e.spells-srd.Dread Secret]{Dread Secret}</li>\n</ul>\n<p><strong>Related Domains</strong> knowledge, truth</p>\n<h3>Curse of Torrential Knowledge</h3>\n<p>You have a link to true divine knowledge, but your mortal mind struggles to process and act on what you know. Loose materials around you, such as dust, grains of rice, and droplets of water, slowly shift to form strange runes or faint indecipherable writing, and you sometimes speak unintelligible truths or statements in unknown languages without realizing it.</p>\n<h4>Minor Curse</h4>\n<p>You take a -4 penalty to initiative, as trying to process a surge of information about what's happening around you slows your ability to respond to it.</p>\n<p>@Compendium[pf2e.feature-effects.Effect: Minor Lore Curse]{Effect: Minor Lore Curse}</p>\n<h4>Moderate Curse</h4>\n<p>The flow of information through your mind grows. The attention you divert to process this huge influx of information means you are always @Compendium[pf2e.conditionitems.Flat-Footed]{Flat-Footed}.</p>\n<p>At the start of each of your turns, you automatically make one check to @Compendium[pf2e.actionspf2e.Recall Knowledge (Arcana)]{Recall Knowledge} as a free action. This uses a skill of your choice that has the Recall Knowledge action, using a result equal to 10 + your proficiency bonus in that skill (with no other bonuses, penalties, or modifiers).</p>\n<p>@Compendium[pf2e.feature-effects.Effect: Moderate Lore Curse]{Effect: Moderate Lore Curse}</p>\n<h4>Major Curse (11th)</h4>\n<p>The massive flow of information clouding your mind overwhelms your ability to communicate with others. You can understand all languages, but you can't speak, use linguistic effects, or otherwise communicate with your allies.</p>\n<p>If you Cast a Spell with a verbal component, you must succeed at a DC 5 flat check or the spell is lost.</p>\n<p>You gain a +4 status bonus on saving throws against linguistic effects.</p>\n<p>@Compendium[pf2e.feature-effects.Effect: Major Lore Curse]{Effect: Major Lore Curse}</p>"
        },
        "featType": {
            "value": "classfeature"
        },
        "level": {
            "value": 1
        },
        "location": "",
        "prerequisites": {
            "value": []
        },
        "rules": [
            {
                "key": "ActiveEffectLike",
                "mode": "upgrade",
                "path": "data.skills.occ.rank",
                "value": 1
            }
        ],
        "source": {
            "value": ""
        },
        "traits": {
            "custom": "",
            "rarity": {
                "value": "common"
            },
            "value": [
                "oracle"
            ]
        }
    },
    "effects": [],
    "flags": {},
    "img": "systems/pf2e/icons/features/classes/lore-mystery.webp",
    "name": "Lore Mystery",
    "type": "feat"
}
