{
    "_id": "a3pSIKkDVTvvNSRO",
    "data": {
        "actionCategory": {
            "value": ""
        },
        "actionType": {
            "value": "passive"
        },
        "actions": {
            "value": null
        },
        "description": {
            "value": "<p>You're a wanderer traveling from land to land with your gun and a melee weapon as company. Maybe you learned to fight with blade and pistol as a Shackles pirate, mastered the hand cannon and katana in Minkai, or practiced with a hatchet and clan pistol in Dongun Hold. You win battles by relying on mobility and flexible use of your weapons.</p>\n<p><strong>Slinger's Reload</strong> Reloading Strike</p>\n<p><strong>Deeds</strong> <em>Initial</em> Into the Fray; <em>Advanced</em> Finish the Job; <em>Greater</em> Drifter's Wake Way</p>\n<p><strong>Skill</strong> Acrobatics</p>"
        },
        "featType": {
            "value": "classfeature"
        },
        "level": {
            "value": 1
        },
        "location": "",
        "prerequisites": {
            "value": []
        },
        "rules": [],
        "source": {
            "value": ""
        },
        "traits": {
            "custom": "",
            "rarity": {
                "value": "common"
            },
            "value": [
                "gunslinger"
            ]
        }
    },
    "effects": [],
    "flags": {},
    "img": "systems/pf2e/icons/features/classes/way-of-the-drifter.webp",
    "name": "Way of the Drifter",
    "type": "feat"
}
