{
    "_id": "59NR1hA2jPSgg2sW",
    "data": {
        "ability": {
            "value": ""
        },
        "area": {
            "value": ""
        },
        "areasize": {
            "value": ""
        },
        "category": {
            "value": "spell"
        },
        "components": {
            "material": false,
            "somatic": true,
            "verbal": true
        },
        "cost": {
            "value": ""
        },
        "damage": {
            "value": {
                "0": {
                    "type": {
                        "categories": [],
                        "value": "acid"
                    },
                    "value": "7d6"
                }
            }
        },
        "description": {
            "value": "<p>You point at a target in range, and its skin grows searing blisters filled with caustic fluid. The target must attempt a Fortitude save.</p>\n<hr />\n<p><strong>Critical Success</strong> The target is unaffected.</p>\n<p><strong>Success</strong> The target grows one blister. You can spend a single action, which has the concentrate trait, to pop a blister. The target and each creature in a 15-foot cone originating from the target takes <a class=\"inline-roll roll\" data-mode=\"roll\" data-flavor=\"acid\" data-formula=\"7d6\" title=\"acid\"><i class=\"fas fa-dice-d20\"></i> 7d6</a> acid damage (basic Fortitude save). You choose the direction of the cone, which can't include the target. When no blisters are left, the spell ends.</p>\n<p><strong>Failure</strong> As success, but the target grows two blisters.</p>\n<p><strong>Critical Failure</strong> As success, but the target grows four blisters.</p>\n<hr />\n<p><strong>Heightened (+1)</strong> The damage of a popped blister increases by <a class=\"inline-roll roll\" data-mode=\"roll\" data-flavor=\"acid\" data-formula=\"1d6\" title=\"acid\"><i class=\"fas fa-dice-d20\"></i> 1d6</a>.</p>"
        },
        "duration": {
            "value": "1 minute"
        },
        "hasCounteractCheck": {
            "value": false
        },
        "level": {
            "value": 5
        },
        "location": {
            "value": ""
        },
        "materials": {
            "value": ""
        },
        "prepared": {
            "value": false
        },
        "primarycheck": {
            "value": ""
        },
        "range": {
            "value": "60 feet"
        },
        "rules": [],
        "save": {
            "basic": "",
            "value": "fortitude"
        },
        "scaling": {
            "damage": {
                "0": "1d6"
            },
            "interval": 1
        },
        "school": {
            "value": "necromancy"
        },
        "secondarycasters": {
            "value": ""
        },
        "secondarycheck": {
            "value": ""
        },
        "source": {
            "value": "Pathfinder Advanced Player's Guide"
        },
        "spellType": {
            "value": "save"
        },
        "sustained": {
            "value": false
        },
        "target": {
            "value": "15 foot cone"
        },
        "time": {
            "value": "2"
        },
        "traditions": {
            "value": [
                "arcane",
                "occult",
                "primal"
            ]
        },
        "traits": {
            "custom": "",
            "rarity": {
                "value": "common"
            },
            "value": []
        }
    },
    "effects": [],
    "flags": {},
    "img": "systems/pf2e/icons/spells/blister.webp",
    "name": "Blister",
    "type": "spell"
}
