{
    "_id": "53Kw9WQtvrEtABEu",
    "data": {
        "ability": {
            "value": ""
        },
        "area": {
            "areaType": "",
            "value": ""
        },
        "autoHeightenLevel": {
            "value": null
        },
        "category": {
            "value": "spell"
        },
        "components": {
            "focus": false,
            "material": false,
            "somatic": false,
            "verbal": true
        },
        "cost": {
            "value": ""
        },
        "damage": {
            "value": {}
        },
        "description": {
            "value": "<p>You instruct the target to do something, compelling obedience by calling it by its true name. Your instructions can't be self-destructive. Though this spell has the linguistic trait, this applies only to the instructions; the creature doesn't need to know its own true name to be affected. The target must attempt a Will saving throw.</p>\n<hr />\n<p><strong>Critical Success</strong> The target is unaffected, is temporarily immune to further castings of this spell by you for 1 week, and learns your true name.</p>\n<p><strong>Success</strong> The target is unaffected, is temporarily immune to further castings of this spell by you for 1 day, and learns a fragment of your true name.</p>\n<p><strong>Failure</strong> The target does as you command. The spell has a duration of 10 minutes, or until the target has completed a finite instruction or the instructions become selfdestructive. The creature is temporarily immune to further castings of this spell by you for 1 hour.</p>\n<p><strong>Critical Failure</strong> As failure, but the spell's duration is 8 hours, and the creature is not temporarily immune.</p>"
        },
        "duration": {
            "value": "varies"
        },
        "hasCounteractCheck": {
            "value": false
        },
        "level": {
            "value": 4
        },
        "location": {
            "value": ""
        },
        "materials": {
            "value": ""
        },
        "range": {
            "value": "30 feet"
        },
        "rules": [],
        "save": {
            "basic": "",
            "value": "will"
        },
        "school": {
            "value": "enchantment"
        },
        "source": {
            "value": "Pathfinder Secrets of Magic"
        },
        "spellType": {
            "value": "save"
        },
        "sustained": {
            "value": false
        },
        "target": {
            "value": "1 creature whose true name you know"
        },
        "time": {
            "value": "2"
        },
        "traditions": {
            "custom": "",
            "value": [
                "arcane",
                "divine",
                "occult",
                "primal"
            ]
        },
        "traits": {
            "custom": "",
            "rarity": {
                "value": "rare"
            },
            "value": [
                "auditory",
                "incapacitation",
                "linguistic",
                "mental",
                "true-name"
            ]
        }
    },
    "effects": [],
    "flags": {},
    "img": "systems/pf2e/icons/default-icons/spell.svg",
    "name": "Compel True Name",
    "type": "spell"
}
