{
    "_id": "fPlFRu4dp09qJs3K",
    "data": {
        "ability": {
            "value": ""
        },
        "area": {
            "areaType": "",
            "value": ""
        },
        "autoHeightenLevel": {
            "value": null
        },
        "category": {
            "value": "spell"
        },
        "components": {
            "focus": false,
            "material": true,
            "somatic": true,
            "verbal": true
        },
        "cost": {
            "value": ""
        },
        "damage": {
            "value": {}
        },
        "description": {
            "value": "<p>This spell wards against those who attempt to subvert your mind and turns mental magic back on them. When the spell is complete, you gain the @Compendium[pf2e.actionspf2e.Fight with Fear]{Fight with Fear} reaction; once you use the reaction, the spell ends.</p>\n<p><span data-pf2-check=\"will\" data-pf2-traits=\"emotion,enchantment,fear,mental\" data-pf2-label=\"Fight with Fear DC\" data-pf2-show-dc=\"gm\">Will</span></p>"
        },
        "duration": {
            "value": "24 hours"
        },
        "hasCounteractCheck": {
            "value": false
        },
        "level": {
            "value": 3
        },
        "location": {
            "value": ""
        },
        "materials": {
            "value": ""
        },
        "range": {
            "value": ""
        },
        "rules": [],
        "save": {
            "basic": "",
            "value": ""
        },
        "school": {
            "value": "enchantment"
        },
        "source": {
            "value": "Pathfinder Secrets of Magic"
        },
        "spellType": {
            "value": "utility"
        },
        "sustained": {
            "value": false
        },
        "target": {
            "value": ""
        },
        "time": {
            "value": "10 minutes"
        },
        "traditions": {
            "custom": "",
            "value": [
                "arcane",
                "divine",
                "occult",
                "primal"
            ]
        },
        "traits": {
            "custom": "",
            "rarity": {
                "value": "common"
            },
            "value": [
                "contingency",
                "emotion",
                "fear",
                "mental"
            ]
        }
    },
    "effects": [],
    "flags": {},
    "img": "systems/pf2e/icons/spells/mind-of-menace.webp",
    "name": "Mind of Menace",
    "type": "spell"
}
