{
    "_id": "TLqMFgCewxuricJw",
    "data": {
        "ability": {
            "value": ""
        },
        "area": {
            "areaType": "emanation",
            "value": "30"
        },
        "autoHeightenLevel": {
            "value": null
        },
        "category": {
            "value": "spell"
        },
        "components": {
            "focus": false,
            "material": false,
            "somatic": true,
            "verbal": true
        },
        "cost": {
            "value": ""
        },
        "damage": {
            "applyMod": false,
            "value": {
                "0": {
                    "applyMod": false,
                    "type": {
                        "subtype": "",
                        "value": "force"
                    },
                    "value": "7d10"
                }
            }
        },
        "description": {
            "value": "<p>You unleash a powerful pulse of telekinetic power, and the pulse violently hurls creatures away from you. Each creature in the area takes 7d10 force damage depending on its Reflex save.</p>\n<hr />\n<p><strong>Critical Success</strong> The creature is unaffected.</p>\n<p><strong>Success</strong> The creature takes half damage.</p>\n<p><strong>Failure</strong> The creature takes full damage and is pushed 10 feet away from you.</p>\n<p><strong>Critical Failure</strong> The creature takes double damage. The creature is pushed 20 feet away from you and is then knocked @Compendium[pf2e.conditionitems.Prone]{Prone}.</p>\n<hr />\n<p><strong>Heightened (+2)</strong> The force damage increases by 2d10, and the distance the target is moved on a failure and critical failure increases by 5 feet.</p>"
        },
        "duration": {
            "value": ""
        },
        "hasCounteractCheck": {
            "value": false
        },
        "level": {
            "value": 5
        },
        "location": {
            "value": ""
        },
        "materials": {
            "value": ""
        },
        "range": {
            "value": ""
        },
        "rules": [],
        "save": {
            "basic": "",
            "value": "reflex"
        },
        "scaling": {
            "damage": {
                "0": "2d10"
            },
            "interval": 2
        },
        "school": {
            "value": "evocation"
        },
        "source": {
            "value": "Pathfinder Secrets of Magic"
        },
        "spellType": {
            "value": "save"
        },
        "sustained": {
            "value": false
        },
        "target": {
            "value": ""
        },
        "time": {
            "value": "2"
        },
        "traditions": {
            "custom": "",
            "value": [
                "divine",
                "occult"
            ]
        },
        "traits": {
            "custom": "",
            "rarity": {
                "value": "common"
            },
            "value": [
                "force"
            ]
        }
    },
    "effects": [],
    "flags": {},
    "img": "systems/pf2e/icons/spells/repelling-pulse.webp",
    "name": "Repelling Pulse",
    "type": "spell"
}
