{
    "_id": "vDEfNzjLpGJU54cz",
    "data": {
        "actionCategory": {
            "value": "defensive"
        },
        "actionType": {
            "value": "passive"
        },
        "actions": {
            "value": null
        },
        "description": {
            "value": "<p>Your body has adapted a defensive mechanism to break off your quills in an attacker, allowing you to defend yourself against aggressive predators, though it takes a while for the quills to grow back. You gain the @Compendium[pf2e.actionspf2e.Barbed Quills]{Barbed Quills} reaction.</p>"
        },
        "featType": {
            "value": "heritage"
        },
        "level": {
            "value": 1
        },
        "location": "",
        "prerequisites": {
            "value": []
        },
        "rules": [],
        "source": {
            "value": ""
        },
        "traits": {
            "custom": "",
            "rarity": {
                "value": "common"
            },
            "value": [
                "heritage",
                "shisk"
            ]
        }
    },
    "effects": [],
    "flags": {},
    "img": "systems/pf2e/icons/default-icons/feat.svg",
    "name": "Quillcoat Shisk",
    "type": "feat"
}
