{
    "_id": "We3sJV72xtdPeMjp",
    "data": {
        "actionCategory": {
            "value": ""
        },
        "actionType": {
            "value": "passive"
        },
        "actions": {
            "value": null
        },
        "description": {
            "value": "<p>You have achieved a legendary accomplishment and unlocked rare secrets to share with your allies. You have access to all the class feats and focus spells listed on pages 76-77 of this book for any character you create, though the character must still meet all prerequisites as normal.</p>"
        },
        "featType": {
            "value": "pfsboon"
        },
        "identified": {
            "value": true
        },
        "level": {
            "value": 0
        },
        "prerequisites": {
            "value": []
        },
        "rules": [],
        "source": {
            "value": ""
        },
        "traits": {
            "custom": "",
            "rarity": {
                "value": "common"
            },
            "selected": {},
            "value": []
        }
    },
    "effects": [],
    "flags": {},
    "img": "systems/pf2e/icons/default-icons/mystery-man.webp",
    "name": "AoA #150: Boon B - Paragon of Promise",
    "type": "feat"
}
