{
    "_id": "6XUhCWU0h0qbgL5Z",
    "data": {
        "actionCategory": {
            "value": ""
        },
        "actionType": {
            "value": "passive"
        },
        "actions": {
            "value": null
        },
        "description": {
            "value": "<p><strong>□ Spark of Life:</strong> A seed has been planted in the fey demiplane known as the Lodge of the Open Road. Inside this seed is a tiny spark of your essence. If you die during an adventure, check the box next to this boon to reduce the gold or material cost of a raise dead ritual to restore you to life by 50%. This ritual automatically succeeds (but cannot critically succeed). This boon does not stack with other boons which affect raise dead.</p>"
        },
        "featType": {
            "value": "pfsboon"
        },
        "identified": {
            "value": true
        },
        "level": {
            "value": 0
        },
        "prerequisites": {
            "value": []
        },
        "rules": [],
        "source": {
            "value": ""
        },
        "traits": {
            "custom": "",
            "rarity": {
                "value": "common"
            },
            "selected": {},
            "value": []
        }
    },
    "effects": [],
    "flags": {},
    "img": "systems/pf2e/icons/default-icons/mystery-man.webp",
    "name": "S2-00 - Spark of Life (levels 7-8)",
    "type": "feat"
}
