{
    "_id": "Im5JBInybWFbHEYS",
    "data": {
        "description": {
            "value": "<p>Granted by @Compendium[pf2e.feats-srd.Rain of Embers Stance]{Rain of Embers Stance}</p>\n<p>You enter the stance of an enraged phoenix, holding your fingers as rigid as deadly talons while moving with quick, flickering gestures that dance with biting flames. The only Strikes you can make are fire talon Strikes. These deal 1d4 fire damage; are in the brawling group; and have the agile, finesse, fire, nonlethal, and unarmed traits.</p>\n<p>While in Rain of Embers Stance, you gain a +1 status bonus to AC and fire resistance equal to half your level (minimum 1).</p>"
        },
        "duration": {
            "expiry": "turn-start",
            "sustained": false,
            "unit": "unlimited",
            "value": -1
        },
        "level": {
            "value": 0
        },
        "rules": [
            {
                "category": "unarmed",
                "damage": {
                    "base": {
                        "damageType": "fire",
                        "dice": 1,
                        "die": "d4"
                    }
                },
                "group": "brawling",
                "key": "Strike",
                "label": "Fire Talon",
                "range": "melee",
                "traits": [
                    "agile",
                    "finesse",
                    "fire",
                    "unarmed",
                    "nonlethal"
                ]
            },
            {
                "key": "FlatModifier",
                "selector": "ac",
                "type": "status",
                "value": 1
            }
        ],
        "source": {
            "value": ""
        },
        "start": {
            "initiative": null,
            "value": 0
        },
        "target": null,
        "tokenIcon": {
            "show": true
        },
        "traits": {
            "custom": "",
            "rarity": {
                "value": "common"
            },
            "value": []
        }
    },
    "effects": [],
    "flags": {},
    "img": "systems/pf2e/icons/features/feats/rain-of-embers-stance.webp",
    "name": "Stance: Rain of Embers Stance",
    "type": "effect"
}
