{
    "_id": "kdZEZ6iBYQPVGzYD",
    "data": {
        "description": {
            "value": "<p>The guildmaster gives a speech to inspire themself and all guild-member allies within 60 feet, granting them a +1 status bonus to attack and damage rolls until the start of the guildmaster's next turn.</p>"
        },
        "duration": {
            "expiry": "turn-start",
            "sustained": false,
            "unit": "rounds",
            "value": 1
        },
        "level": {
            "value": 1
        },
        "rules": [
            {
                "key": "FlatModifier",
                "selector": "attack",
                "type": "status",
                "value": 1
            },
            {
                "key": "FlatModifier",
                "selector": "damage",
                "type": "status",
                "value": 1
            }
        ],
        "source": {
            "value": "Pathfinder Gamemastery Guide"
        },
        "start": {
            "initiative": null,
            "value": 0
        },
        "target": null,
        "tokenIcon": {
            "show": true
        },
        "traits": {
            "custom": "",
            "rarity": {
                "value": "common"
            },
            "value": []
        }
    },
    "effects": [],
    "flags": {},
    "img": "systems/pf2e/icons/spells/inspire-courage.webp",
    "name": "Effect: Call to Action",
    "type": "effect"
}
