{
    "_id": "glxrhALybtp9WYh9",
    "data": {
        "abilities": {
            "cha": {
                "mod": -2
            },
            "con": {
                "mod": 1
            },
            "dex": {
                "mod": 3
            },
            "int": {
                "mod": -4
            },
            "str": {
                "mod": -3
            },
            "wis": {
                "mod": 1
            }
        },
        "attributes": {
            "ac": {
                "details": "",
                "value": 14
            },
            "allSaves": {
                "value": ""
            },
            "hp": {
                "details": "",
                "max": 12,
                "temp": 0,
                "value": 12
            },
            "initiative": {
                "ability": "perception"
            },
            "perception": {
                "value": 5
            },
            "shield": {
                "ac": 0,
                "brokenThreshold": "0",
                "hardness": 0,
                "max": "0",
                "value": 0
            },
            "speed": {
                "otherSpeeds": [
                    {
                        "type": "Climb",
                        "value": "30 feet"
                    }
                ],
                "value": "30 feet, climb 20 feet"
            }
        },
        "details": {
            "alignment": {
                "value": "N"
            },
            "blurb": "",
            "creatureType": "Animal",
            "level": {
                "value": 1
            },
            "privateNotes": "",
            "publicNotes": "<p>Swarms of centipedes are dangerous indeed, ravenous carpets of skittering hunger capable of devouring a traveler whole in a matter of minutes. Some alchemists submerge whole centipedes taken from swarms in their elixirs and some mutagens, claiming such infusions increase potency, though other say this is nothing more than quackish claptrap. Kobolds and mitflits are both known to incorporate swarms of centipedes into cunning traps, from simple pits filled with vermin or more complex affairs involving chutes that dump the vermin onto the heads of unwary intruders.</p>",
            "source": {
                "value": "Pathfinder Bestiary"
            }
        },
        "resources": {},
        "saves": {
            "fortitude": {
                "saveDetail": "",
                "value": 2
            },
            "reflex": {
                "saveDetail": "",
                "value": 7
            },
            "will": {
                "saveDetail": "",
                "value": 4
            }
        },
        "traits": {
            "ci": [],
            "di": {
                "custom": "",
                "value": [
                    "precision",
                    "swarm-mind"
                ]
            },
            "dr": [
                {
                    "exceptions": "",
                    "label": "Physical",
                    "type": "physical",
                    "value": "6"
                }
            ],
            "dv": [
                {
                    "exceptions": "",
                    "label": "Area Damage",
                    "type": "area-damage",
                    "value": "3"
                },
                {
                    "exceptions": "",
                    "label": "Splash Damage",
                    "type": "splash-damage",
                    "value": "3"
                }
            ],
            "languages": {
                "custom": "",
                "selected": [],
                "value": []
            },
            "rarity": {
                "value": "common"
            },
            "senses": {
                "value": "low-light vision"
            },
            "size": {
                "value": "lg"
            },
            "traits": {
                "custom": "",
                "value": [
                    "animal",
                    "swarm"
                ]
            }
        }
    },
    "effects": [],
    "flags": {},
    "img": "systems/pf2e/icons/default-icons/npc.svg",
    "items": [
        {
            "_id": "e6gQA5jXDMbCKyDj",
            "data": {
                "actionCategory": {
                    "value": "offensive"
                },
                "actionType": {
                    "value": "action"
                },
                "actions": {
                    "value": 2
                },
                "description": {
                    "value": "<p>Each enemy in</p>\n<p>the swarm's space takes [[/r {1d4}[piercing]]]{1d4 piercing damage} and must</p>\n<p>attempt a <span data-pf2-check=\"reflex\" data-pf2-dc=\"17\" data-pf2-traits=\"damaging-effect\" data-pf2-label=\"Swarming Claws and Teeth DC\" data-pf2-show-dc=\"gm\">Reflex</span> save.</p>\n<p><span class=\"fontstyle2\">Critical Success </span>The creature is unaffected.</p>\n<p><span class=\"fontstyle2\">Success </span>The creature takes half damage</p>\n<p>Failure<span class=\"fontstyle2\">The creature takes full damage, is clumsy 2, and is</span></p>\n<p>exposed to rabies.</p>\n<p>Critical Failure<span class=\"fontstyle2\">The creature takes double damage, is clumsy</span></p>\n<p>2, falls prone, and is exposed to rabies.</p>\n<p>A creature affected by this attack can spend 2 actions on its</p>\n<p>turn to attempt another <span data-pf2-check=\"reflex\" data-pf2-dc=\"17\" data-pf2-traits=\"damaging-effect\" data-pf2-label=\"Swarming Claws and Teeth DC\" data-pf2-show-dc=\"gm\">Reflex</span> save to remove the</p>\n<p>clumsy condition. <br style=\"font-variant-numeric: normal; font-variant-east-asian: normal; line-height: normal; text-align: -webkit-auto; text-size-adjust: auto;\"></p>"
                },
                "requirements": {
                    "value": ""
                },
                "rules": [],
                "slug": null,
                "source": {
                    "value": ""
                },
                "traits": {
                    "custom": "",
                    "rarity": {
                        "value": "common"
                    },
                    "selected": {},
                    "value": []
                },
                "trigger": {
                    "value": ""
                },
                "weapon": {
                    "value": ""
                }
            },
            "effects": [],
            "flags": {},
            "img": "systems/pf2e/icons/actions/TwoActions.webp",
            "name": "Swarming Claws and Teeth",
            "sort": 100000,
            "type": "action"
        },
        {
            "_id": "wakLLGLUq65OLNcq",
            "data": {
                "actionCategory": {
                    "value": ""
                },
                "actionType": {
                    "value": "passive"
                },
                "actions": {
                    "value": null
                },
                "description": {
                    "value": "<p><strong>Saving Throw</strong><span data-pf2-check=\"fortitude\" data-pf2-dc=\"14\" data-pf2-traits=\"disease\" data-pf2-label=\"Rabies DC\" data-pf2-show-dc=\"gm\">Fortitude</span>; <strong>Stage 1</strong>@Compendium[pf2e.conditionitems.Sickened]{Sickened 1} and @Compendium[pf2e.conditionitems.Stupefied]{Stupefied 1} (1 day), <strong>Stage 2</strong>@Compendium[pf2e.conditionitems.Sickened]{Sickened 2} and @Compendium[pf2e.conditionitems.Stupefied]{Stupefied 2} (1 day), <strong>Stage 3</strong>@Compendium[pf2e.conditionitems.Confused]{Confused} (1 day), <strong>Stage 4</strong>@Compendium[pf2e.conditionitems.Unconscious]{Unconscious}(1 day), <strong>Stage 5</strong> dead</p>"
                },
                "requirements": {
                    "value": ""
                },
                "rules": [],
                "slug": null,
                "source": {
                    "value": ""
                },
                "traits": {
                    "custom": "",
                    "rarity": {
                        "value": "common"
                    },
                    "selected": {},
                    "value": []
                },
                "trigger": {
                    "value": ""
                },
                "weapon": {
                    "value": ""
                }
            },
            "effects": [],
            "flags": {},
            "img": "systems/pf2e/icons/default-icons/action.svg",
            "name": "Rabies",
            "sort": 200000,
            "type": "action"
        },
        {
            "_id": "9c3g4yNI2sNlNpvD",
            "data": {
                "description": {
                    "value": ""
                },
                "item": {
                    "value": 0
                },
                "mod": {
                    "value": 8
                },
                "proficient": {
                    "value": 0
                },
                "rules": [],
                "slug": null,
                "source": {
                    "value": ""
                },
                "traits": {
                    "custom": "",
                    "rarity": {
                        "value": "common"
                    },
                    "value": []
                }
            },
            "effects": [],
            "flags": {},
            "img": "systems/pf2e/icons/default-icons/lore.svg",
            "name": "Acrobatics",
            "sort": 300000,
            "type": "lore"
        },
        {
            "_id": "JOLdVXeT0P45d9vw",
            "data": {
                "description": {
                    "value": ""
                },
                "item": {
                    "value": 0
                },
                "mod": {
                    "value": 4
                },
                "proficient": {
                    "value": 0
                },
                "rules": [],
                "slug": null,
                "source": {
                    "value": ""
                },
                "traits": {
                    "custom": "",
                    "rarity": {
                        "value": "common"
                    },
                    "value": []
                }
            },
            "effects": [],
            "flags": {},
            "img": "systems/pf2e/icons/default-icons/lore.svg",
            "name": "Athletics",
            "sort": 400000,
            "type": "lore"
        }
    ],
    "name": "Rabid Squirrel Swarm",
    "token": {
        "disposition": -1,
        "height": 2,
        "img": "systems/pf2e/icons/default-icons/npc.svg",
        "name": "Rabid Squirrel Swarm",
        "width": 2
    },
    "type": "npc"
}
